VOLTS,CURRNT_NAMP,TEMP_DEGC,AIR_TEMP_DEGC,RH_PRCNT
-4.97E-03,-1.00E+04,4.30E+04,-9.90E+01,-9.90E+01,-1.00E+13
-4.47E-03,-9.00E+03,2.00E+01,-9.90E+01,-9.90E+01,-9.00E+12
-3.97E-03,-8.00E+03,2.00E+01,-9.90E+01,-9.90E+01,-8.00E+12
-3.47E-03,-7.00E+03,2.00E+01,-9.90E+01,-9.90E+01,-7.00E+12
-2.97E-03,-6.00E+03,2.00E+01,-9.90E+01,-9.90E+01,-6.00E+12
-2.47E-03,-5.00E+03,2.00E+01,-9.90E+01,-9.90E+01,-5.00E+12
-1.97E-03,-4.00E+03,2.00E+01,-9.90E+01,-9.90E+01,-4.00E+12
-1.46E-03,-3.00E+03,2.00E+01,-9.90E+01,-9.90E+01,-3.00E+12
-9.60E-04,-2.00E+03,2.00E+01,-9.90E+01,-9.90E+01,-2.00E+12
-4.80E-04,-1.00E+03,2.00E+01,-9.90E+01,-9.90E+01,-1.00E+12
4.00E-05,-1.69E-12,2.00E+01,-9.90E+01,-9.90E+01,-1.69E-03
5.90E-04,1.00E+03,2.00E+01,-9.90E+01,-9.90E+01,1.00E+12
1.04E-03,2.00E+03,2.00E+01,-9.90E+01,-9.90E+01,2.00E+12
1.55E-03,3.00E+03,2.00E+01,-9.90E+01,-9.90E+01,3.00E+12
2.06E-03,4.00E+03,2.00E+01,-9.90E+01,-9.90E+01,4.00E+12
2.56E-03,5.00E+03,2.00E+01,-9.90E+01,-9.90E+01,5.00E+12
3.06E-03,6.00E+03,2.00E+01,-9.90E+01,-9.90E+01,6.00E+12
3.57E-03,7.00E+03,2.00E+01,-9.90E+01,-9.90E+01,7.00E+12
4.08E-03,8.00E+03,2.00E+01,-9.90E+01,-9.90E+01,8.00E+12
4.58E-03,9.00E+03,2.00E+01,-9.90E+01,-9.90E+01,9.00E+12
5.09E-03,1.00E+04,2.00E+01,-9.90E+01,-9.90E+01,1.00E+13
5.54E-03,1.10E+04,2.00E+01,-9.90E+01,-9.90E+01,1.10E+13
