﻿VOLTS,CURRNT_NAMP,TEMP_DEGC,AIR_TEMP_DEGC,RH_PRCNT 
-1.54E-01,-2.00E+03,2.00E+01,2.49E+01,0.00E+00
-1.46E-01,-1.90E+03,2.00E+01,2.49E+01,0.00E+00
-1.38E-01,-1.80E+03,2.00E+01,2.49E+01,0.00E+00
-1.31E-01,-1.70E+03,2.00E+01,2.49E+01,0.00E+00
-1.23E-01,-1.60E+03,2.00E+01,2.49E+01,0.00E+00
-1.15E-01,-1.50E+03,2.00E+01,2.49E+01,0.00E+00
-1.07E-01,-1.40E+03,2.00E+01,2.49E+01,0.00E+00
-9.98E-02,-1.30E+03,2.00E+01,2.49E+01,0.00E+00
-9.21E-02,-1.20E+03,2.00E+01,2.49E+01,0.00E+00
-8.44E-02,-1.10E+03,2.00E+01,2.49E+01,0.00E+00
-7.69E-02,-1.00E+03,2.00E+01,2.49E+01,0.00E+00
-6.92E-02,-9.00E+02,2.00E+01,2.49E+01,0.00E+00
-6.15E-02,-8.00E+02,2.00E+01,2.49E+01,0.00E+00
-5.38E-02,-7.00E+02,2.00E+01,2.49E+01,0.00E+00
-4.61E-02,-6.00E+02,2.00E+01,2.49E+01,0.00E+00
-3.85E-02,-5.00E+02,2.00E+01,2.49E+01,0.00E+00
-3.08E-02,-4.00E+02,2.00E+01,2.49E+01,0.00E+00
-2.31E-02,-3.00E+02,2.00E+01,2.49E+01,0.00E+00
-1.54E-02,-2.00E+02,2.00E+01,2.49E+01,0.00E+00
-7.69E-03,-1.00E+02,2.00E+01,2.49E+01,0.00E+00
2.00E-05,0.00E+00,2.00E+01,2.49E+01,0.00E+00
7.77E-03,1.00E+02,2.00E+01,2.49E+01,0.00E+00
1.54E-02,2.00E+02,2.00E+01,2.49E+01,0.00E+00
2.31E-02,3.00E+02,2.00E+01,2.49E+01,0.00E+00
3.08E-02,4.00E+02,2.00E+01,2.49E+01,0.00E+00
3.85E-02,5.00E+02,2.00E+01,2.49E+01,0.00E+00
4.62E-02,6.00E+02,2.00E+01,2.49E+01,0.00E+00
5.39E-02,7.00E+02,2.00E+01,2.49E+01,0.00E+00
6.16E-02,8.00E+02,2.00E+01,2.49E+01,0.00E+00
6.92E-02,9.00E+02,2.00E+01,2.49E+01,0.00E+00
7.69E-02,1.00E+03,2.00E+01,2.49E+01,0.00E+00
8.45E-02,1.10E+03,2.00E+01,2.49E+01,0.00E+00
9.21E-02,1.20E+03,2.00E+01,2.49E+01,0.00E+00
9.98E-02,1.30E+03,2.00E+01,2.49E+01,0.00E+00
1.07E-01,1.40E+03,2.00E+01,2.49E+01,0.00E+00
1.15E-01,1.50E+03,2.00E+01,2.49E+01,0.00E+00
1.23E-01,1.60E+03,2.00E+01,2.49E+01,0.00E+00
1.30E-01,1.70E+03,2.00E+01,2.49E+01,0.00E+00
1.38E-01,1.80E+03,2.00E+01,2.49E+01,0.00E+00
1.46E-01,1.90E+03,2.00E+01,2.49E+01,0.00E+00
1.53E-01,2.00E+03,2.00E+01,2.49E+01,0.00E+00
