#Measurement file	
#project	CMS tracker
#Sensor Type	PSS
#ID	34342_025_PSS_MAINL
#Scratch PAD	|0000|0000|0000|0000|0010|0101|
#Operator	HPK
#Date	28-Sep-20
#Ingot No.	2984038-504
#Bad strips	0
#AC NG	none
#AC open	none
#AC short	none
#DC high	none
#DC low	none
#DC leaky	none
#Polysilicon Bias Resistance Upper [Mohm]	1.81 
#Polysilicon Bias Resistance Lower [Mohm]	1.60 
#Polysilicon Bias Resistance Average [Mohm]	1.70 
#Depletion voltage [V]	290
#temperature [deg]	25
#humidity [%]	50
	
voltage [V]	current [A]
0	3.799E-09
20	6.658E-08
40	7.155E-08
60	7.334E-08
80	7.459E-08
100	7.562E-08
120	7.668E-08
140	7.747E-08
160	7.815E-08
180	7.85E-08
200	7.915E-08
220	7.499E-08
240	7.628E-08
260	7.798E-08
280	7.959E-08
300	8.062E-08
320	8.137E-08
340	8.199E-08
360	8.257E-08
380	8.309E-08
400	8.36E-08
420	8.408E-08
440	8.453E-08
460	8.499E-08
480	8.543E-08
500	8.585E-08
520	8.628E-08
540	8.669E-08
560	8.711E-08
580	8.752E-08
600	8.793E-08
620	8.834E-08
640	8.876E-08
660	8.917E-08
680	8.959E-08
700	9.001E-08
720	9.043E-08
740	9.086E-08
760	9.13E-08
780	9.175E-08
800	9.22E-08
820	9.267E-08
840	9.315E-08
860	9.364E-08
880	9.415E-08
900	9.466E-08
920	9.521E-08
940	9.577E-08
960	9.636E-08
980	9.697E-08
1000	9.762E-08
	
voltage [V]	capacitance [F]
0	5.49587E-08
10	7.98346E-09
20	5.85453E-09
30	4.831E-09
40	4.19748E-09
50	3.75457E-09
60	3.43532E-09
70	3.18098E-09
80	2.95889E-09
90	2.79205E-09
100	2.6506E-09
110	2.52848E-09
120	2.42193E-09
130	2.3278E-09
140	2.24346E-09
150	2.16792E-09
160	2.09925E-09
170	2.04033E-09
180	1.98188E-09
190	1.92382E-09
200	1.87202E-09
210	1.82508E-09
220	1.78121E-09
230	1.73821E-09
240	1.69659E-09
250	1.65727E-09
260	1.6222E-09
270	1.59367E-09
280	1.57658E-09
290	1.56955E-09
300	1.56647E-09
310	1.56467E-09
320	1.56347E-09
330	1.56255E-09
340	1.56181E-09
350	1.56115E-09
360	1.56065E-09
370	1.56018E-09
380	1.55977E-09
390	1.55941E-09
400	1.55908E-09
	
#End of manufacturer data file		
