#Measurement file	
#project	CMS tracker
#Sensor Type	PSS
#ID	34342_035_PSS_MAINL
#Scratch PAD	|0000|0000|0000|0000|0011|0101|
#Operator	HPK
#Date	28-Sep-20
#Ingot No.	2984038-504
#Bad strips	0
#AC NG	none
#AC open	none
#AC short	none
#DC high	none
#DC low	none
#DC leaky	none
#Polysilicon Bias Resistance Upper [Mohm]	1.81 
#Polysilicon Bias Resistance Lower [Mohm]	1.60 
#Polysilicon Bias Resistance Average [Mohm]	1.70 
#Depletion voltage [V]	290
#temperature [deg]	25
#humidity [%]	50
	
voltage [V]	current [A]
0	4.113E-09
20	6.461E-08
40	6.721E-08
60	6.856E-08
80	7.097E-08
100	7.203E-08
120	7.306E-08
140	7.358E-08
160	7.435E-08
180	7.464E-08
200	7.506E-08
220	7.595E-08
240	7.75E-08
260	7.62E-08
280	7.663E-08
300	7.779E-08
320	7.859E-08
340	7.924E-08
360	7.982E-08
380	8.034E-08
400	8.084E-08
420	8.13E-08
440	8.176E-08
460	8.219E-08
480	8.262E-08
500	8.303E-08
520	8.344E-08
540	8.384E-08
560	8.423E-08
580	8.464E-08
600	8.503E-08
620	8.542E-08
640	8.581E-08
660	8.621E-08
680	8.661E-08
700	8.701E-08
720	8.742E-08
740	8.783E-08
760	8.825E-08
780	8.867E-08
800	8.911E-08
820	8.955E-08
840	9.001E-08
860	9.048E-08
880	9.098E-08
900	9.148E-08
920	9.201E-08
940	9.257E-08
960	9.315E-08
980	9.376E-08
1000	9.439E-08
	
voltage [V]	capacitance [F]
0	5.72216E-08
10	8.4528E-09
20	6.08745E-09
30	4.95991E-09
40	4.26899E-09
50	3.81199E-09
60	3.47181E-09
70	3.18708E-09
80	2.97842E-09
90	2.80546E-09
100	2.65923E-09
110	2.53352E-09
120	2.42425E-09
130	2.32774E-09
140	2.24143E-09
150	2.16447E-09
160	2.09547E-09
170	2.0349E-09
180	1.97681E-09
190	1.9202E-09
200	1.86791E-09
210	1.82038E-09
220	1.77615E-09
230	1.73379E-09
240	1.69288E-09
250	1.65423E-09
260	1.61978E-09
270	1.59195E-09
280	1.57499E-09
290	1.5678E-09
300	1.56457E-09
310	1.56279E-09
320	1.5615E-09
330	1.56052E-09
340	1.55979E-09
350	1.55917E-09
360	1.55859E-09
370	1.5581E-09
380	1.55768E-09
390	1.55732E-09
400	1.55694E-09
	
#End of manufacturer data file		
