#Measurement file	
#project	CMS tracker
#Sensor Type	PSS
#ID	34342_024_PSS_MAINL
#Scratch PAD	|0000|0000|0000|0000|0010|0100|
#Operator	HPK
#Date	28-Sep-20
#Ingot No.	2984038-504
#Bad strips	0
#AC NG	none
#AC open	none
#AC short	none
#DC high	none
#DC low	none
#DC leaky	none
#Polysilicon Bias Resistance Upper [Mohm]	1.81 
#Polysilicon Bias Resistance Lower [Mohm]	1.60 
#Polysilicon Bias Resistance Average [Mohm]	1.70 
#Depletion voltage [V]	290
#temperature [deg]	25
#humidity [%]	50
	
voltage [V]	current [A]
0	4.461E-09
20	6.894E-08
40	7.164E-08
60	7.341E-08
80	0.000000076
100	7.704E-08
120	7.819E-08
140	7.878E-08
160	7.967E-08
180	7.997E-08
200	8.064E-08
220	8.168E-08
240	8.314E-08
260	8.008E-08
280	8.189E-08
300	8.301E-08
320	8.382E-08
340	8.45E-08
360	8.51E-08
380	8.565E-08
400	8.619E-08
420	8.669E-08
440	8.717E-08
460	8.763E-08
480	8.81E-08
500	8.855E-08
520	8.898E-08
540	8.941E-08
560	8.985E-08
580	9.027E-08
600	9.07E-08
620	9.112E-08
640	9.155E-08
660	9.198E-08
680	9.24E-08
700	9.284E-08
720	9.327E-08
740	9.372E-08
760	9.417E-08
780	9.462E-08
800	9.509E-08
820	9.557E-08
840	9.607E-08
860	9.659E-08
880	9.713E-08
900	9.766E-08
920	9.822E-08
940	9.88E-08
960	9.94E-08
980	1.0003E-07
1000	1.0069E-07
	
voltage [V]	capacitance [F]
0	5.7576E-08
10	8.25077E-09
20	5.94868E-09
30	4.88639E-09
40	4.22913E-09
50	3.78102E-09
60	3.4574E-09
70	3.19928E-09
80	2.97542E-09
90	2.80688E-09
100	2.66388E-09
110	2.54055E-09
120	2.43304E-09
130	2.33803E-09
140	2.25287E-09
150	2.17668E-09
160	2.10815E-09
170	2.04828E-09
180	1.98657E-09
190	1.92996E-09
200	1.87975E-09
210	1.83332E-09
220	1.78907E-09
230	1.74656E-09
240	1.70577E-09
250	1.66709E-09
260	1.63194E-09
270	1.60186E-09
280	1.5812E-09
290	1.57202E-09
300	1.5683E-09
310	1.56627E-09
320	1.56493E-09
330	1.56399E-09
340	1.56321E-09
350	1.56253E-09
360	1.56194E-09
370	1.56149E-09
380	1.56103E-09
390	1.56066E-09
400	1.5603E-09
	
#End of manufacturer data file		
