#Measurement file	
#project	CMS tracker
#Sensor Type	PSS
#ID	34342_039_PSS_MAINL
#Scratch PAD	|0000|0000|0000|0000|0011|1001|
#Operator	HPK
#Date	28-Sep-20
#Ingot No.	2984038-504
#Bad strips	0
#AC NG	none
#AC open	none
#AC short	none
#DC high	none
#DC low	none
#DC leaky	none
#Polysilicon Bias Resistance Upper [Mohm]	1.81 
#Polysilicon Bias Resistance Lower [Mohm]	1.60 
#Polysilicon Bias Resistance Average [Mohm]	1.70 
#Depletion voltage [V]	290
#temperature [deg]	25
#humidity [%]	50
	
voltage [V]	current [A]
0	3.677E-09
20	6.441E-08
40	6.964E-08
60	7.13E-08
80	7.246E-08
100	7.344E-08
120	7.474E-08
140	7.507E-08
160	7.579E-08
180	7.61E-08
200	7.659E-08
220	7.257E-08
240	7.422E-08
260	7.656E-08
280	7.872E-08
300	7.999E-08
320	8.085E-08
340	8.155E-08
360	8.217E-08
380	8.273E-08
400	8.326E-08
420	8.376E-08
440	8.423E-08
460	8.469E-08
480	8.515E-08
500	8.559E-08
520	8.602E-08
540	8.645E-08
560	8.687E-08
580	8.728E-08
600	8.77E-08
620	8.811E-08
640	8.853E-08
660	8.895E-08
680	8.936E-08
700	8.979E-08
720	9.021E-08
740	9.064E-08
760	9.108E-08
780	9.153E-08
800	9.198E-08
820	9.245E-08
840	9.293E-08
860	9.343E-08
880	9.394E-08
900	9.447E-08
920	9.502E-08
940	9.56E-08
960	9.62E-08
980	9.684E-08
1000	9.751E-08
	
voltage [V]	capacitance [F]
0	5.81853E-08
10	8.53849E-09
20	6.05473E-09
30	4.94998E-09
40	4.26867E-09
50	3.81613E-09
60	3.47911E-09
70	3.19569E-09
80	2.98784E-09
90	2.81542E-09
100	2.66949E-09
110	2.54412E-09
120	2.43463E-09
130	2.33817E-09
140	2.25185E-09
150	2.17483E-09
160	2.10551E-09
170	2.04579E-09
180	1.98627E-09
190	1.92909E-09
200	1.87647E-09
210	1.82906E-09
220	1.78475E-09
230	1.74206E-09
240	1.7009E-09
250	1.66213E-09
260	1.62722E-09
270	1.59857E-09
280	1.58077E-09
290	1.57334E-09
300	1.57008E-09
310	1.56824E-09
320	1.567E-09
330	1.56603E-09
340	1.56527E-09
350	1.56461E-09
360	1.56408E-09
370	1.56359E-09
380	1.56321E-09
390	1.5628E-09
400	1.56244E-09
	
#End of manufacturer data file		
