#Measurement file	
#project	CMS tracker
#Sensor Type	PSS
#ID	34342_032_PSS_MAINR
#Scratch PAD	|0000|0000|0000|0000|0011|0010|
#Operator	HPK
#Date	28-Sep-20
#Ingot No.	2984038-504
#Bad strips	0
#AC NG	none
#AC open	none
#AC short	none
#DC high	none
#DC low	none
#DC leaky	none
#Polysilicon Bias Resistance Upper [Mohm]	1.81 
#Polysilicon Bias Resistance Lower [Mohm]	1.60 
#Polysilicon Bias Resistance Average [Mohm]	1.70 
#Depletion voltage [V]	280
#temperature [deg]	25
#humidity [%]	50
	
voltage [V]	current [A]
0	2.308E-09
20	6.499E-08
40	6.822E-08
60	7.122E-08
80	7.272E-08
100	7.389E-08
120	7.514E-08
140	7.61E-08
160	7.702E-08
180	7.759E-08
200	7.808E-08
220	7.895E-08
240	8.08E-08
260	8.069E-08
280	8.247E-08
300	8.355E-08
320	8.436E-08
340	8.505E-08
360	8.567E-08
380	8.625E-08
400	8.68E-08
420	8.731E-08
440	8.782E-08
460	8.83E-08
480	8.878E-08
500	8.925E-08
520	8.97E-08
540	9.015E-08
560	9.06E-08
580	9.104E-08
600	9.147E-08
620	9.191E-08
640	9.234E-08
660	9.278E-08
680	9.321E-08
700	9.365E-08
720	9.408E-08
740	9.453E-08
760	9.498E-08
780	9.542E-08
800	9.588E-08
820	9.635E-08
840	9.682E-08
860	9.731E-08
880	9.78E-08
900	9.83E-08
920	9.882E-08
940	9.934E-08
960	9.988E-08
980	1.0044E-07
1000	1.0101E-07
	
voltage [V]	capacitance [F]
0	6.16017E-08
10	8.08706E-09
20	5.65305E-09
30	4.72786E-09
40	4.12922E-09
50	3.71175E-09
60	3.40247E-09
70	3.13429E-09
80	2.93736E-09
90	2.7739E-09
100	2.63496E-09
110	2.51476E-09
120	2.40975E-09
130	2.3169E-09
140	2.23366E-09
150	2.15889E-09
160	2.09204E-09
170	2.03103E-09
180	1.97327E-09
190	1.91844E-09
200	1.86784E-09
210	1.82015E-09
220	1.775E-09
230	1.73011E-09
240	1.68573E-09
250	1.64659E-09
260	1.61296E-09
270	1.58758E-09
280	1.5736E-09
290	1.56779E-09
300	1.565E-09
310	1.56329E-09
320	1.56211E-09
330	1.56119E-09
340	1.56046E-09
350	1.55984E-09
360	1.55927E-09
370	1.5588E-09
380	1.55843E-09
390	1.558E-09
400	1.55766E-09
	
#End of manufacturer data file		
