#Measurement file	
#project	CMS tracker
#Sensor Type	PSS
#ID	34342_025_PSS_MAINR
#Scratch PAD	|0000|0000|0000|0000|0010|0101|
#Operator	HPK
#Date	28-Sep-20
#Ingot No.	2984038-504
#Bad strips	0
#AC NG	none
#AC open	none
#AC short	none
#DC high	none
#DC low	none
#DC leaky	none
#Polysilicon Bias Resistance Upper [Mohm]	1.81 
#Polysilicon Bias Resistance Lower [Mohm]	1.60 
#Polysilicon Bias Resistance Average [Mohm]	1.70 
#Depletion voltage [V]	280
#temperature [deg]	25
#humidity [%]	50
	
voltage [V]	current [A]
0	4.575E-09
20	6.865E-08
40	7.284E-08
60	7.661E-08
80	7.818E-08
100	7.94E-08
120	8.062E-08
140	8.153E-08
160	8.222E-08
180	8.247E-08
200	8.277E-08
220	8.326E-08
240	8.092E-08
260	8.15E-08
280	8.314E-08
300	8.417E-08
320	8.496E-08
340	8.565E-08
360	8.628E-08
380	8.686E-08
400	8.742E-08
420	8.796E-08
440	8.848E-08
460	8.899E-08
480	8.949E-08
500	8.999E-08
520	9.046E-08
540	9.094E-08
560	9.142E-08
580	9.19E-08
600	9.237E-08
620	9.285E-08
640	9.333E-08
660	9.381E-08
680	9.431E-08
700	9.481E-08
720	9.533E-08
740	9.586E-08
760	9.641E-08
780	9.697E-08
800	9.757E-08
820	9.818E-08
840	9.882E-08
860	9.949E-08
880	1.0019E-07
900	1.0094E-07
920	1.0173E-07
940	1.0257E-07
960	1.0345E-07
980	1.044E-07
1000	1.0541E-07
	
voltage [V]	capacitance [F]
0	6.26219E-08
10	8.37954E-09
20	5.58938E-09
30	4.69161E-09
40	4.11372E-09
50	3.69652E-09
60	3.38556E-09
70	3.14493E-09
80	2.92643E-09
90	2.76378E-09
100	2.62636E-09
110	2.50732E-09
120	2.40328E-09
130	2.31121E-09
140	2.2286E-09
150	2.15452E-09
160	2.08722E-09
170	2.02916E-09
180	1.97105E-09
190	1.9163E-09
200	1.86578E-09
210	1.81824E-09
220	1.7733E-09
230	1.72777E-09
240	1.68513E-09
250	1.64548E-09
260	1.61068E-09
270	1.58563E-09
280	1.57325E-09
290	1.56838E-09
300	1.56595E-09
310	1.56447E-09
320	1.56335E-09
330	1.56253E-09
340	1.56183E-09
350	1.56123E-09
360	1.56073E-09
370	1.5603E-09
380	1.5599E-09
390	1.5595E-09
400	1.55922E-09
	
#End of manufacturer data file		
