#Measurement file	
#project	CMS tracker
#Sensor Type	PSS
#ID	34342_047_PSS_MAINR
#Scratch PAD	|0000|0000|0000|0000|0100|0111|
#Operator	HPK
#Date	28-Sep-20
#Ingot No.	2984038-504
#Bad strips	0
#AC NG	none
#AC open	none
#AC short	none
#DC high	none
#DC low	none
#DC leaky	none
#Polysilicon Bias Resistance Upper [Mohm]	1.81 
#Polysilicon Bias Resistance Lower [Mohm]	1.60 
#Polysilicon Bias Resistance Average [Mohm]	1.70 
#Depletion voltage [V]	280
#temperature [deg]	25
#humidity [%]	50
	
voltage [V]	current [A]
0	2.1E-09
20	6.581E-08
40	6.987E-08
60	7.202E-08
80	7.356E-08
100	7.473E-08
120	7.612E-08
140	7.712E-08
160	7.782E-08
180	7.817E-08
200	7.86E-08
220	7.681E-08
240	7.862E-08
260	8.116E-08
280	8.327E-08
300	8.451E-08
320	8.542E-08
340	8.618E-08
360	8.685E-08
380	8.747E-08
400	8.806E-08
420	8.862E-08
440	8.915E-08
460	8.967E-08
480	9.018E-08
500	9.067E-08
520	9.116E-08
540	9.164E-08
560	9.211E-08
580	9.258E-08
600	9.305E-08
620	9.352E-08
640	9.399E-08
660	9.446E-08
680	9.495E-08
700	9.544E-08
720	9.596E-08
740	9.654E-08
760	9.719E-08
780	9.789E-08
800	9.863E-08
820	9.937E-08
840	1.001E-07
860	1.0083E-07
880	1.0161E-07
900	1.0238E-07
920	1.0322E-07
940	1.0413E-07
960	1.0532E-07
980	1.2009E-07
1000	1.3358E-07
	
voltage [V]	capacitance [F]
0	6.17407E-08
10	8.01075E-09
20	5.61729E-09
30	4.69777E-09
40	4.10591E-09
50	3.68829E-09
60	3.37969E-09
70	3.1374E-09
80	2.91825E-09
90	2.75564E-09
100	2.6177E-09
110	2.4984E-09
120	2.39428E-09
130	2.3022E-09
140	2.21957E-09
150	2.14547E-09
160	2.07851E-09
170	2.01917E-09
180	1.96097E-09
190	1.90675E-09
200	1.85641E-09
210	1.80902E-09
220	1.76349E-09
230	1.71764E-09
240	1.6756E-09
250	1.63735E-09
260	1.60444E-09
270	1.58069E-09
280	1.56915E-09
290	1.56459E-09
300	1.5623E-09
310	1.56086E-09
320	1.55977E-09
330	1.55895E-09
340	1.55831E-09
350	1.55771E-09
360	1.55723E-09
370	1.55679E-09
380	1.55638E-09
390	1.55604E-09
400	1.5557E-09
	
#End of manufacturer data file		
