#Measurement file	
#project	CMS tracker
#Sensor Type	PSS
#ID	34342_012_PSS_MAINR
#Scratch PAD	|0000|0000|0000|0000|0001|0010|
#Operator	HPK
#Date	28-Sep-20
#Ingot No.	2984038-504
#Bad strips	0
#AC NG	none
#AC open	none
#AC short	none
#DC high	none
#DC low	none
#DC leaky	none
#Polysilicon Bias Resistance Upper [Mohm]	1.81 
#Polysilicon Bias Resistance Lower [Mohm]	1.60 
#Polysilicon Bias Resistance Average [Mohm]	1.70 
#Depletion voltage [V]	280
#temperature [deg]	25
#humidity [%]	50
	
voltage [V]	current [A]
0	4.676E-09
20	6.916E-08
40	7.314E-08
60	7.622E-08
80	7.849E-08
100	7.968E-08
120	8.091E-08
140	8.175E-08
160	8.259E-08
180	8.308E-08
200	8.348E-08
220	8.42E-08
240	8.586E-08
260	8.304E-08
280	8.481E-08
300	8.586E-08
320	8.669E-08
340	8.739E-08
360	8.804E-08
380	8.863E-08
400	8.92E-08
420	8.975E-08
440	9.027E-08
460	9.078E-08
480	9.128E-08
500	9.176E-08
520	9.225E-08
540	9.272E-08
560	9.319E-08
580	9.365E-08
600	9.412E-08
620	9.459E-08
640	9.504E-08
660	9.55E-08
680	9.596E-08
700	9.642E-08
720	9.689E-08
740	9.736E-08
760	9.783E-08
780	9.831E-08
800	9.879E-08
820	9.929E-08
840	9.98E-08
860	1.0031E-07
880	1.0083E-07
900	1.0138E-07
920	1.0193E-07
940	1.025E-07
960	1.0307E-07
980	1.0369E-07
1000	1.0432E-07
	
voltage [V]	capacitance [F]
0	6.15798E-08
10	8.1496E-09
20	5.59378E-09
30	4.6875E-09
40	4.101E-09
50	3.68435E-09
60	3.37675E-09
70	3.13631E-09
80	2.91685E-09
90	2.7548E-09
100	2.61731E-09
110	2.4984E-09
120	2.39439E-09
130	2.30242E-09
140	2.2199E-09
150	2.14588E-09
160	2.07993E-09
170	2.01778E-09
180	1.96173E-09
190	1.90753E-09
200	1.85716E-09
210	1.80965E-09
220	1.76453E-09
230	1.71935E-09
240	1.67625E-09
250	1.63756E-09
260	1.60514E-09
270	1.58304E-09
280	1.57281E-09
290	1.56873E-09
300	1.56658E-09
310	1.56517E-09
320	1.56414E-09
330	1.5633E-09
340	1.56265E-09
350	1.56208E-09
360	1.56159E-09
370	1.56115E-09
380	1.56076E-09
390	1.5604E-09
400	1.56006E-09
	
#End of manufacturer data file		
