#Measurement file	
#project	CMS tracker
#Sensor Type	PSS
#ID	34342_016_PSS_MAINR
#Scratch PAD	|0000|0000|0000|0000|0001|0110|
#Operator	HPK
#Date	28-Sep-20
#Ingot No.	2984038-504
#Bad strips	0
#AC NG	none
#AC open	none
#AC short	none
#DC high	none
#DC low	none
#DC leaky	none
#Polysilicon Bias Resistance Upper [Mohm]	1.81 
#Polysilicon Bias Resistance Lower [Mohm]	1.60 
#Polysilicon Bias Resistance Average [Mohm]	1.70 
#Depletion voltage [V]	280
#temperature [deg]	25
#humidity [%]	50
	
voltage [V]	current [A]
0	4.582E-09
20	6.76E-08
40	7.19E-08
60	7.732E-08
80	7.896E-08
100	8.019E-08
120	8.147E-08
140	8.233E-08
160	8.326E-08
180	8.379E-08
200	8.417E-08
220	8.494E-08
240	8.137E-08
260	8.354E-08
280	8.51E-08
300	8.607E-08
320	8.685E-08
340	8.752E-08
360	8.813E-08
380	8.87E-08
400	8.925E-08
420	8.977E-08
440	9.028E-08
460	9.078E-08
480	9.127E-08
500	9.175E-08
520	9.222E-08
540	9.268E-08
560	9.315E-08
580	9.361E-08
600	9.407E-08
620	9.452E-08
640	9.498E-08
660	9.544E-08
680	9.59E-08
700	9.636E-08
720	9.683E-08
740	9.73E-08
760	9.777E-08
780	9.825E-08
800	9.874E-08
820	9.924E-08
840	9.975E-08
860	1.0027E-07
880	1.0081E-07
900	1.0136E-07
920	1.0193E-07
940	1.0252E-07
960	1.0314E-07
980	1.0426E-07
1000	1.0759E-07
	
voltage [V]	capacitance [F]
0	6.18965E-08
10	8.20443E-09
20	5.66432E-09
30	4.72006E-09
40	4.12757E-09
50	3.70735E-09
60	3.39704E-09
70	3.15487E-09
80	2.93358E-09
90	2.77043E-09
100	2.63178E-09
110	2.51175E-09
120	2.40689E-09
130	2.31414E-09
140	2.23107E-09
150	2.15661E-09
160	2.08889E-09
170	2.0302E-09
180	1.97238E-09
190	1.91772E-09
200	1.86719E-09
210	1.81954E-09
220	1.77432E-09
230	1.72864E-09
240	1.68528E-09
250	1.64561E-09
260	1.61173E-09
270	1.58648E-09
280	1.57329E-09
290	1.56799E-09
300	1.56542E-09
310	1.56384E-09
320	1.5627E-09
330	1.56184E-09
340	1.56112E-09
350	1.56051E-09
360	1.55999E-09
370	1.55956E-09
380	1.55916E-09
390	1.55881E-09
400	1.55846E-09
	
#End of manufacturer data file		
