#Measurement file	
#project	CMS tracker
#Sensor Type	PSS
#ID	34342_022_PSS_MAINR
#Scratch PAD	|0000|0000|0000|0000|0010|0010|
#Operator	HPK
#Date	28-Sep-20
#Ingot No.	2984038-504
#Bad strips	0
#AC NG	none
#AC open	none
#AC short	none
#DC high	none
#DC low	none
#DC leaky	none
#Polysilicon Bias Resistance Upper [Mohm]	1.81 
#Polysilicon Bias Resistance Lower [Mohm]	1.60 
#Polysilicon Bias Resistance Average [Mohm]	1.70 
#Depletion voltage [V]	280
#temperature [deg]	25
#humidity [%]	50
	
voltage [V]	current [A]
0	5.559E-09
20	7.202E-08
40	7.607E-08
60	7.852E-08
80	8.023E-08
100	8.143E-08
120	8.267E-08
140	0.000000082
160	7.926E-08
180	7.962E-08
200	0.00000008
220	8.068E-08
240	8.226E-08
260	8.445E-08
280	8.622E-08
300	8.732E-08
320	8.816E-08
340	8.888E-08
360	8.954E-08
380	9.015E-08
400	9.073E-08
420	9.129E-08
440	9.183E-08
460	9.236E-08
480	9.287E-08
500	9.337E-08
520	9.386E-08
540	9.436E-08
560	9.484E-08
580	9.532E-08
600	9.581E-08
620	9.629E-08
640	9.677E-08
660	9.727E-08
680	9.776E-08
700	9.826E-08
720	9.875E-08
740	9.925E-08
760	9.977E-08
780	1.003E-07
800	1.0083E-07
820	1.0138E-07
840	1.0195E-07
860	1.0253E-07
880	1.0313E-07
900	1.0376E-07
920	1.0443E-07
940	1.0515E-07
960	1.0593E-07
980	1.0679E-07
1000	1.0779E-07
	
voltage [V]	capacitance [F]
0	6.21927E-08
10	8.10245E-09
20	5.66818E-09
30	4.72427E-09
40	4.13339E-09
50	3.71071E-09
60	3.39855E-09
70	3.156E-09
80	2.93639E-09
90	2.77124E-09
100	2.63256E-09
110	2.51262E-09
120	2.40786E-09
130	2.31518E-09
140	2.23208E-09
150	2.1576E-09
160	2.08978E-09
170	2.03101E-09
180	1.97307E-09
190	1.91843E-09
200	1.86791E-09
210	1.82025E-09
220	1.77478E-09
230	1.72818E-09
240	1.68688E-09
250	1.64746E-09
260	1.61357E-09
270	1.58803E-09
280	1.57484E-09
290	1.56963E-09
300	1.56711E-09
310	1.56555E-09
320	1.56447E-09
330	1.5636E-09
340	1.56288E-09
350	1.56231E-09
360	1.56177E-09
370	1.56133E-09
380	1.56091E-09
390	1.56055E-09
400	1.56019E-09
	
#End of manufacturer data file		
