#Measurement file	
#project	CMS tracker
#Sensor Type	PSS
#ID	34342_002_PSS_MAINR
#Scratch PAD	|0000|0000|0000|0000|0000|0010|
#Operator	HPK
#Date	28-Sep-20
#Ingot No.	2984038-504
#Bad strips	0
#AC NG	none
#AC open	none
#AC short	none
#DC high	none
#DC low	none
#DC leaky	none
#Polysilicon Bias Resistance Upper [Mohm]	1.81 
#Polysilicon Bias Resistance Lower [Mohm]	1.60 
#Polysilicon Bias Resistance Average [Mohm]	1.70 
#Depletion voltage [V]	280
#temperature [deg]	25
#humidity [%]	50
	
voltage [V]	current [A]
0	0
20	20
40	40
60	60
80	80
100	100
120	120
140	140
160	160
180	180
200	200
220	220
240	240
260	260
280	280
300	300
320	320
340	340
360	360
380	380
400	400
420	420
440	440
460	460
480	480
500	500
520	520
540	540
560	560
580	580
600	600
620	620
640	640
660	660
680	680
700	700
720	720
740	740
760	760
780	780
800	800
820	820
840	840
860	860
880	880
900	900
920	920
940	940
960	960
980	980
1000	1000
	
voltage [V]	capacitance [F]
0	6.28019E-08
10	8.43892E-09
20	5.63495E-09
30	4.67092E-09
40	4.09458E-09
50	3.67902E-09
60	3.37058E-09
70	3.12926E-09
80	2.91244E-09
90	2.75161E-09
100	2.61464E-09
110	2.49616E-09
120	2.39248E-09
130	2.30075E-09
140	2.21844E-09
150	2.14462E-09
160	2.07763E-09
170	2.01715E-09
180	1.9635E-09
190	1.90985E-09
200	1.85878E-09
210	1.81066E-09
220	1.76565E-09
230	1.72244E-09
240	1.68046E-09
250	1.64062E-09
260	1.60606E-09
270	1.58165E-09
280	1.57036E-09
290	1.56555E-09
300	1.56317E-09
310	1.56176E-09
320	1.56072E-09
330	1.55989E-09
340	1.55923E-09
350	1.55865E-09
360	1.55816E-09
370	1.55771E-09
380	1.55731E-09
390	1.55697E-09
400	1.55664E-09
	
#End of manufacturer data file		
