# Measurement file: 			
 # Project: CMS Tracker Upgrade			
 # Sensor Type: 2S			
 # ID:  41356_016_2-S_MAIN0			
 # Operator: Ashiq			
 # Date: Thu Jun 09 10:17:01 2022			
			
			
Voltage [V]	Capacitance[F]	Temperature degree [C]	Humidity rel. percent[rel %]
0	6.81363E-08	20	10.59
-5	2.24014E-08	20	10.59
-10	1.50664E-08	20	10.59
-15	1.26924E-08	20	10.6
-20	1.10939E-08	20	10.58
-25	9.90717E-09	20	10.58
-30	9.06225E-09	20	10.58
-35	8.40019E-09	20	10.57
-40	7.87057E-09	20	10.56
-45	7.42882E-09	20	10.56
-50	7.05184E-09	20	10.54
-55	6.72389E-09	20	10.55
-60	6.41252E-09	20	10.53
-65	6.15236E-09	20	10.52
-70	5.92611E-09	20	10.5
-75	5.72392E-09	20	10.5
-80	5.54036E-09	20	10.49
-85	5.37290E-09	20	10.49
-90	5.21969E-09	20	10.47
-95	5.07816E-09	20	10.46
-100	4.94746E-09	20	10.44
-105	4.82536E-09	20	10.44
-110	4.71220E-09	20	10.41
-115	4.60648E-09	20	10.42
-120	4.50753E-09	20	10.43
-125	4.41450E-09	20	10.4
-130	4.34774E-09	20	10.38
-135	4.26505E-09	20	10.38
-140	4.18627E-09	20	10.39
-145	4.11236E-09	20	10.36
-150	4.04100E-09	20	10.36
-155	3.97324E-09	20	10.35
-160	3.90863E-09	20	10.34
-165	3.84639E-09	20	10.35
-170	3.78652E-09	20	10.33
-175	3.72848E-09	20	10.33
-180	3.67293E-09	20	10.34
-185	3.61950E-09	20	10.33
-190	3.56713E-09	20	10.31
-195	3.51655E-09	20	10.33
-200	3.46761E-09	20	10.32
-205	3.41902E-09	20	10.31
-210	3.37096E-09	20	10.29
-215	3.32465E-09	20	10.3
-220	3.27928E-09	20	10.3
-225	3.23711E-09	20	10.3
-230	3.19686E-09	20	10.29
-235	3.15934E-09	20	10.3
-240	3.12810E-09	20	10.29
-245	3.10550E-09	20	10.29
-250	3.09147E-09	20	10.3
-255	3.08347E-09	20	10.3
-260	3.07891E-09	20	10.28
-265	3.07537E-09	20	10.31
-270	3.07272E-09	20	10.3
-275	3.07023E-09	20	10.29
-280	3.06847E-09	20	10.3
-285	3.06679E-09	20	10.29
-290	3.06526E-09	20	10.31
-295	3.06282E-09	20	10.29
-300	3.05996E-09	20	10.31
-305	3.05671E-09	20	10.3
-310	3.05435E-09	20	10.3
-315	3.05276E-09	20	10.3
-320	3.05206E-09	20	10.3
-325	3.05123E-09	20	10.31
-330	3.05035E-09	20	10.3
-335	3.04946E-09	20	10.31
-340	3.04888E-09	20	10.31
-345	3.04839E-09	20	10.3
-350	3.04748E-09	20	10.3
-355	3.04697E-09	20	10.31
-360	3.04640E-09	20	10.32
-365	3.04565E-09	20	10.31
-370	3.04528E-09	20	10.31
-375	3.04482E-09	20	10.31
-380	3.04400E-09	20	10.34
-385	3.04392E-09	20	10.33
-390	3.04332E-09	20	10.32
-395	3.04273E-09	20	10.32
-400	3.04215E-09	20	10.32
-405	3.04191E-09	20	10.32
-410	3.04158E-09	20	10.32
-415	3.04106E-09	20	10.35
-420	3.04070E-09	20	10.34
-425	3.04023E-09	20	10.34
-430	3.03977E-09	20	10.35
-435	3.03935E-09	20	10.36
-440	3.03888E-09	20	10.35
-445	3.03845E-09	20	10.34
-450	3.03811E-09	20	10.35
-455	3.03765E-09	20	10.35
-460	3.03718E-09	20	10.35
-465	3.03692E-09	20	10.36
-470	3.03635E-09	20	10.37
-475	3.03601E-09	20	10.37
-480	3.03593E-09	20	10.36
-485	3.03528E-09	20	10.37
-490	3.03505E-09	20	10.37
-495	3.03467E-09	20	10.37
-500	3.03449E-09	20	10.37
-505	3.03385E-09	20	10.4
-510	3.03342E-09	20	10.38
-515	3.03307E-09	20	10.37
-520	3.03280E-09	20	10.38
-525	3.03248E-09	20	10.39
-530	3.03234E-09	20	10.43
-535	3.03173E-09	20	10.41
-540	3.03138E-09	20	10.4
-545	3.03102E-09	20	10.41
-550	3.03064E-09	20	10.41
-555	3.03033E-09	20	10.4
-560	3.03000E-09	20	10.42
-565	3.03008E-09	20	10.41
-570	3.02973E-09	20	10.42
-575	3.02885E-09	20	10.43
-580	3.02841E-09	20	10.43
-585	3.02800E-09	20	10.44
-590	3.02788E-09	20	10.44
-595	3.02762E-09	20	10.44
-600	3.02731E-09	20	10.43
