#NameLabel,2S_18_5_FNL-00002
#Date,2024-01-24 15:53:00
#Comment,abc
#Location,Fermilab
#Inserter,Stefan Maier
#RunType,mod_final

STATION, AV_TEMP_DEGC, AV_RH_PRCNT
KIT-ModuleReadout-Station1, 20, 5

VOLTS, CURRNT_NAMP, TEMP_DEGC, RH_PRCNT, TIME
-0.003859,-511.70900000000006,23.549999,2.150000,2024-07-30 13:08:41
-9.969552,-585.435,23.559999,2.150000,2024-07-30 13:08:46
-19.967569,-609.725,23.549999,2.150000,2024-07-30 13:08:51
-29.978741,-627.521,23.559999,2.150000,2024-07-30 13:08:56
-39.975899,-666.531,23.549999,2.160000,2024-07-30 13:09:01
-49.982399,-695.081,23.559999,2.170000,2024-07-30 13:09:06
-59.972408,-694.646,23.559999,2.180000,2024-07-30 13:09:11
-69.967743,-700.1949999999999,23.559999,2.190000,2024-07-30 13:09:16
-79.981697,-677.264,23.570000,2.200000,2024-07-30 13:09:21
-89.977737,-714.86,23.530001,2.230000,2024-07-30 13:09:26
-99.986671,-664.516,23.549999,2.250000,2024-07-30 13:09:31
-109.981598,-669.572,23.570000,2.250000,2024-07-30 13:09:36
-119.970398,-713.9929999999999,23.549999,2.280000,2024-07-30 13:09:41
-129.987,-763.757,23.559999,2.280000,2024-07-30 13:09:46
-139.975601,-712.661,23.559999,2.300000,2024-07-30 13:09:51
-149.985992,-718.357,23.570000,2.310000,2024-07-30 13:09:56
-159.982803,-700.443,23.549999,2.310000,2024-07-30 13:10:01
-169.974899,-690.837,23.559999,2.320000,2024-07-30 13:10:06
-179.981705,-674.615,23.549999,2.330000,2024-07-30 13:10:11
-189.981903,-716.737,23.549999,2.340000,2024-07-30 13:10:16
-199.969696,-702.194,23.559999,2.340000,2024-07-30 13:10:21
-219.971802,-667.491,23.580000,2.350000,2024-07-30 13:10:27
-239.980499,-691.862,23.559999,2.350000,2024-07-30 13:10:32
-259.974304,-797.5949999999999,23.570000,2.360000,2024-07-30 13:10:38
-279.9758,-756.134,23.590000,2.380000,2024-07-30 13:10:44
-299.984497,-817.151,23.590000,2.380000,2024-07-30 13:10:50
-319.967285,-814.564,23.570000,2.380000,2024-07-30 13:10:55
-339.990112,-772.4209999999999,23.570000,2.380000,2024-07-30 13:11:01
-359.9823,-821.8470000000001,23.570000,2.380000,2024-07-30 13:11:06
-379.973785,-698.221,23.580000,2.380000,2024-07-30 13:11:12
-399.974792,-712.341,23.549999,2.390000,2024-07-30 13:11:18
-419.962799,-615.6719999999999,23.580000,2.380000,2024-07-30 13:11:24
-439.973389,-677.497,23.590000,2.400000,2024-07-30 13:11:30
-459.980408,-692.947,23.580000,2.400000,2024-07-30 13:11:36
-479.964996,-694.289,23.570000,2.390000,2024-07-30 13:11:41
-499.967987,-751.0179999999999,23.559999,2.410000,2024-07-30 13:11:48
-519.961426,-795.6610000000001,23.580000,2.410000,2024-07-30 13:11:54
-539.96283,-831.989,23.580000,2.420000,2024-07-30 13:12:00
-559.976196,-798.742,23.590000,2.410000,2024-07-30 13:12:05
-579.956177,-816.8,23.590000,2.420000,2024-07-30 13:12:10
-599.952698,-793.3670000000001,23.600000,2.420000,2024-07-30 13:12:17
-619.955017,-795.967,23.610001,2.430000,2024-07-30 13:12:23
-639.963684,-847.3430000000001,23.600000,2.410000,2024-07-30 13:12:29
-659.942017,-830.409,23.610001,2.440000,2024-07-30 13:12:35
-679.946716,-823.0780000000001,23.590000,2.430000,2024-07-30 13:12:41
-699.943604,-841.455,23.600000,2.430000,2024-07-30 13:12:47
-719.94458,-817.907,23.620001,2.440000,2024-07-30 13:12:53
-739.94519,-822.426,23.610001,2.430000,2024-07-30 13:12:59
-759.932312,-842.121,23.600000,2.430000,2024-07-30 13:13:05
-779.932312,-844.868,23.610001,2.440000,2024-07-30 13:13:11
-799.930115,-813.162,23.600000,2.440000,2024-07-30 13:13:18
