%CMSwaferCode:CMSchipCode:ChipColumn:ChipRow:Grading:Color:CutVersion:Status:Location:ChipBoardType:BoardNumber:Dose:Sensor:ProbingSite:Iref:IrefTrim:Vref_A:Vref_A_Trim:Vref_D:Vref_D_Trim:Vref_ADC:Vref_ADC_Trim:MON_ADC_Trim:VCAL_HIGH_slope:VCAL_HIGH_offset:VCAL_MED_slope:VCAL_MED_offset:TrefTsensors:Nf1:Nf2:Nf3:Nf4:RD53chipID:Comment:BoardComment:
TSMC_N2WX39-13H1:TSMC_N2WX39-13H1_6_11:6:11:10:red:4:10:Torino:0:0:0:none:Torino:0:0:0:0:0:0:0:0:0:0.000E+00:0.000E+00:0.000E+00:0.000E+00:0:0:0:0:0:5C6B:Probed at Torino, Iref = 0:with:trim:bits:0:No loaded to any board yet
TSMC_N2WX39-13H1:TSMC_N2WX39-13H1_5_12:5:12:2:green:4:2:Torino:0:0:0:none:Torino:3.973903e-06:7:1.192693:19:1.20281:18:0.9028757:8:0:7.400E-09:8.634E-02:-1.900E-09:1.287E-01:0:0:0:0:0:5C5C:Probed at Torino, Iref = 3.973903e-06:with:trim:bits:7:No loaded to any board yet
TSMC_N2WX39-13H1:TSMC_N2WX39-13H1_6_9:6:9:2:green:4:2:Torino:0:0:0:none:Torino:3.947471e-06:5:1.199041:19:1.205602:20:0.8980783:8:0:-5.477E-09:8.779E-02:-5.667E-09:1.298E-01:0:0:0:0:0:5C69:Probed at Torino, Iref = 3.947471e-06:with:trim:bits:5:No loaded to any board yet
TSMC_N2WX39-13H1:TSMC_N2WX39-13H1_5_11:5:11:2:green:4:2:Torino:0:0:0:none:Torino:4.014725e-06:7:1.195522:27:1.193491:19:0.905037:8:0:-3.000E-11:9.372E-02:-5.967E-09:1.352E-01:0:0:0:0:0:5C5B:Probed at Torino, Iref = 4.014725e-06:with:trim:bits:7:No loaded to any board yet
TSMC_N2WX39-13H1:TSMC_N2WX39-13H1_8_11:8:11:2:green:4:2:Torino:0:0:0:none:Torino:3.959622e-06:6:1.204151:26:1.197182:20:0.8992648:9:0:7.013E-09:8.863E-02:1.133E-09:1.306E-01:0:0:0:0:0:5C8B:Probed at Torino, Iref = 3.959622e-06:with:trim:bits:6:No loaded to any board yet
TSMC_N2WX39-13H1:TSMC_N2WX39-13H1_3_11:3:11:2:green:4:2:Torino:0:0:0:none:Torino:3.955696e-06:6:1.19421:27:1.196901:18:0.8995516:11:0:6.340E-09:8.409E-02:1.167E-09:1.264E-01:0:0:0:0:0:5C3B:Probed at Torino, Iref = 3.955696e-06:with:trim:bits:6:No loaded to any board yet
TSMC_N2WX39-13H1:TSMC_N2WX39-13H1_7_12:7:12:2:green:4:2:Torino:0:0:0:none:Torino:4.037742e-06:10:1.211838:24:1.198191:15:0.8968813:7:0:3.597E-09:8.751E-02:3.033E-09:1.293E-01:0:0:0:0:0:5C7C:Probed at Torino, Iref = 4.037742e-06:with:trim:bits:10:No loaded to any board yet
TSMC_N2WX39-13H1:TSMC_N2WX39-13H1_6_10:6:10:10:red:4:10:Torino:0:0:0:none:Torino:0:0:0:0:0:0:0:0:0:0.000E+00:0.000E+00:0.000E+00:0.000E+00:0:0:0:0:0:5C6A:Probed at Torino, Iref = 0:with:trim:bits:0:No loaded to any board yet
TSMC_N2WX39-13H1:TSMC_N2WX39-13H1_6_12:6:12:1:yellow:4:1:Torino:0:0:0:none:Torino:3.959676e-06:7:1.200104:18:1.204348:16:0.9001157:6:0:2.413E-08:1.020E-01:3.067E-09:1.422E-01:0:0:0:0:0:5C6C:Probed at Torino, Iref = 3.959676e-06:with:trim:bits:7:No loaded to any board yet
TSMC_N2WX39-13H1:TSMC_N2WX39-13H1_8_10:8:10:2:green:4:2:Torino:0:0:0:none:Torino:4.01741e-06:9:1.201962:22:1.198024:21:0.8990067:5:0:-4.067E-09:1.013E-01:6.421E-06:8.166E-01:0:0:0:0:0:5C8A:Probed at Torino, Iref = 4.01741e-06:with:trim:bits:9:No loaded to any board yet
TSMC_N2WX39-13H1:TSMC_N2WX39-13H1_4_11:4:11:1:yellow:4:1:Torino:0:0:0:none:Torino:4.045503e-06:6:1.205363:18:1.198511:21:0.8996781:9:0:1.383E-09:8.908E-02:-3.333E-09:1.309E-01:0:0:0:0:0:5C4B:Probed at Torino, Iref = 4.045503e-06:with:trim:bits:6:No loaded to any board yet
TSMC_N2WX39-13H1:TSMC_N2WX39-13H1_5_8:5:8:1:yellow:4:1:Torino:0:0:0:none:Torino:4.007819e-06:9:1.200106:23:1.196901:18:0.8972362:9:0:8.543E-09:9.130E-02:1.300E-09:1.328E-01:0:0:0:0:0:5C58:Probed at Torino, Iref = 4.007819e-06:with:trim:bits:9:No loaded to any board yet
TSMC_N2WX39-13H1:TSMC_N2WX39-13H1_4_12:4:12:2:green:4:2:Torino:0:0:0:none:Torino:4.006363e-06:8:1.198141:24:1.202313:19:0.9003416:6:0:2.052E-04:3.234E-02:2.066E-04:3.196E-02:0:0:0:0:0:5C4C:Probed at Torino, Iref = 4.006363e-06:with:trim:bits:8:No loaded to any board yet
TSMC_N2WX39-13H1:TSMC_N2WX39-13H1_5_10:5:10:2:green:4:2:Torino:0:0:0:none:Torino:3.974513e-06:7:1.19669:18:1.202096:16:0.8989577:8:0:-2.367E-09:9.321E-02:-7.600E-09:1.346E-01:0:0:0:0:0:5C5A:Probed at Torino, Iref = 3.974513e-06:with:trim:bits:7:No loaded to any board yet
TSMC_N2WX39-13H1:TSMC_N2WX39-13H1_7_11:7:11:2:green:4:2:Torino:0:0:0:none:Torino:4.057949e-06:8:1.187711:23:1.20474:23:0.8976737:9:0:1.153E-08:9.298E-02:-2.600E-09:1.344E-01:0:0:0:0:0:5C7B:Probed at Torino, Iref = 4.057949e-06:with:trim:bits:8:No loaded to any board yet
TSMC_N2WX39-13H1:TSMC_N2WX39-13H1_2_10:2:10:2:green:4:2:Torino:0:0:0:none:Torino:3.991773e-06:8:1.204651:16:1.207898:24:0.899882:11:0:3.793E-09:8.488E-02:5.300E-09:1.273E-01:0:0:0:0:0:5C2A:Probed at Torino, Iref = 3.991773e-06:with:trim:bits:8:No loaded to any board yet
TSMC_N2WX39-13H1:TSMC_N2WX39-13H1_9_10:9:10:10:red:4:10:Torino:0:0:0:none:Torino:3.994128e-06:5:1.202604:23:1.197603:17:0.9013453:6:0:-6.167E-09:2.542E-01:1.040E-08:2.552E-01:0:0:0:0:0:5C9A:Probed at Torino, Iref = 3.994128e-06:with:trim:bits:5:No loaded to any board yet
TSMC_N2WX39-13H1:TSMC_N2WX39-13H1_2_8:2:8:2:green:4:2:Torino:0:0:0:none:Torino:3.983541e-06:7:1.194623:23:1.197821:19:0.9037235:8:0:9.083E-09:8.448E-02:6.800E-09:1.269E-01:0:0:0:0:0:5C28:Probed at Torino, Iref = 3.983541e-06:with:trim:bits:7:No loaded to any board yet
TSMC_N2WX39-13H1:TSMC_N2WX39-13H1_7_8:7:8:2:green:4:2:Torino:0:0:0:none:Torino:4.052305e-06:11:1.196253:22:1.198903:18:0.8987502:6:0:6.443E-09:9.388E-02:1.220E-08:1.350E-01:0:0:0:0:0:5C78:Probed at Torino, Iref = 4.052305e-06:with:trim:bits:11:No loaded to any board yet
TSMC_N2WX39-13H1:TSMC_N2WX39-13H1_7_10:7:10:2:green:4:2:Torino:0:0:0:none:Torino:3.990931e-06:7:1.189743:23:1.203498:16:0.9007727:9:0:8.287E-09:9.366E-02:1.733E-09:1.350E-01:0:0:0:0:0:5C7A:Probed at Torino, Iref = 3.990931e-06:with:trim:bits:7:No loaded to any board yet
TSMC_N2WX39-13H1:TSMC_N2WX39-13H1_9_8:9:8:1:yellow:4:1:Torino:0:0:0:none:Torino:3.951219e-06:8:1.202134:21:1.209396:16:0.8938231:7:0:5.290E-09:8.988E-02:1.767E-09:1.312E-01:0:0:0:0:0:5C98:Probed at Torino, Iref = 3.951219e-06:with:trim:bits:8:No loaded to any board yet
TSMC_N2WX39-13H1:TSMC_N2WX39-13H1_4_8:4:8:2:green:4:2:Torino:0:0:0:none:Torino:3.994059e-06:8:1.194663:19:1.203446:19:0.9001646:6:0:7.053E-09:8.787E-02:1.753E-08:1.300E-01:0:0:0:0:0:5C48:Probed at Torino, Iref = 3.994059e-06:with:trim:bits:8:No loaded to any board yet
TSMC_N2WX39-13H1:TSMC_N2WX39-13H1_4_10:4:10:2:green:4:2:Torino:0:0:0:none:Torino:3.955157e-06:8:1.212634:24:1.19772:18:0.8981906:5:0:2.041E-04:3.173E-02:2.055E-04:3.135E-02:0:0:0:0:0:5C4A:Probed at Torino, Iref = 3.955157e-06:with:trim:bits:8:No loaded to any board yet
TSMC_N2WX39-13H1:TSMC_N2WX39-13H1_9_9:9:9:2:green:4:2:Torino:0:0:0:none:Torino:4.012103e-06:9:1.206405:24:1.211292:16:0.8978574:9:0:6.883E-09:9.197E-02:1.513E-08:1.335E-01:0:0:0:0:0:5C99:Probed at Torino, Iref = 4.012103e-06:with:trim:bits:9:No loaded to any board yet
TSMC_N2WX39-13H1:TSMC_N2WX39-13H1_2_9:2:9:1:yellow:4:1:Torino:0:0:0:none:Torino:3.984179e-06:7:1.203747:22:1.1976:17:0.8977241:9:0:1.504E-08:8.783E-02:1.910E-08:1.296E-01:0:0:0:0:0:5C29:Probed at Torino, Iref = 3.984179e-06:with:trim:bits:7:No loaded to any board yet
TSMC_N2WX39-13H1:TSMC_N2WX39-13H1_5_9:5:9:2:green:4:2:Torino:0:0:0:none:Torino:4.045978e-06:8:1.204346:24:1.211569:16:0.8962155:7:0:5.113E-09:9.349E-02:2.967E-09:1.347E-01:0:0:0:0:0:5C59:Probed at Torino, Iref = 4.045978e-06:with:trim:bits:8:No loaded to any board yet
TSMC_N2WX39-13H1:TSMC_N2WX39-13H1_4_9:4:9:2:green:4:2:Torino:0:0:0:none:Torino:4.037546e-06:7:1.203796:26:1.196015:19:0.9007801:6:0:2.028E-04:3.914E-02:2.043E-04:3.867E-02:0:0:0:0:0:5C49:Probed at Torino, Iref = 4.037546e-06:with:trim:bits:7:No loaded to any board yet
TSMC_N2WX39-13H1:TSMC_N2WX39-13H1_3_10:3:10:10:red:4:10:Torino:0:0:0:none:Torino:0:0:0:0:0:0:0:0:0:0.000E+00:0.000E+00:0.000E+00:0.000E+00:0:0:0:0:0:5C3A:Probed at Torino, Iref = 0:with:trim:bits:0:No loaded to any board yet
TSMC_N2WX39-13H1:TSMC_N2WX39-13H1_3_9:3:9:1:yellow:4:1:Torino:0:0:0:none:Torino:3.950724e-06:8:1.20249:20:1.202488:19:0.8949385:7:0:-1.713E-09:8.889E-02:-1.200E-09:1.304E-01:0:0:0:0:0:5C39:Probed at Torino, Iref = 3.950724e-06:with:trim:bits:8:No loaded to any board yet
TSMC_N2WX39-13H1:TSMC_N2WX39-13H1_8_9:8:9:2:green:4:2:Torino:0:0:0:none:Torino:3.941546e-06:4:1.207204:24:1.194553:19:0.9008943:8:0:2.047E-04:3.223E-02:2.063E-04:3.178E-02:0:0:0:0:0:5C89:Probed at Torino, Iref = 3.941546e-06:with:trim:bits:4:No loaded to any board yet
TSMC_N2WX39-13H1:TSMC_N2WX39-13H1_10_6:10:6:1:yellow:4:1:Torino:0:0:0:none:Torino:4.034997e-06:7:1.206436:26:1.200621:16:0.9017413:11:0:2.062E-04:2.615E-02:2.076E-04:2.570E-02:0:0:0:0:0:5CA6:Probed at Torino, Iref = 4.034997e-06:with:trim:bits:7:No loaded to any board yet
TSMC_N2WX39-13H1:TSMC_N2WX39-13H1_7_9:7:9:2:green:4:2:Torino:0:0:0:none:Torino:3.973694e-06:4:1.200447:20:1.200086:21:0.8959144:7:0:8.653E-09:9.131E-02:-1.500E-09:1.327E-01:0:0:0:0:0:5C79:Probed at Torino, Iref = 3.973694e-06:with:trim:bits:4:No loaded to any board yet
TSMC_N2WX39-13H1:TSMC_N2WX39-13H1_5_6:5:6:10:red:4:10:Torino:0:0:0:none:Torino:0:0:0:0:0:0:0:0:0:0.000E+00:0.000E+00:0.000E+00:0.000E+00:0:0:0:0:0:5C56:Probed at Torino, Iref = 0:with:trim:bits:0:No loaded to any board yet
TSMC_N2WX39-13H1:TSMC_N2WX39-13H1_10_8:10:8:2:green:4:2:Torino:0:0:0:none:Torino:3.962927e-06:9:1.20136:26:1.193956:17:0.9017069:8:0:-4.667E-10:8.977E-02:9.400E-09:1.316E-01:0:0:0:0:0:5CA8:Probed at Torino, Iref = 3.962927e-06:with:trim:bits:9:No loaded to any board yet
TSMC_N2WX39-13H1:TSMC_N2WX39-13H1_10_9:10:9:10:red:4:10:Torino:0:0:0:none:Torino:0:0:0:0:0:0:0:0:0:0.000E+00:0.000E+00:0.000E+00:0.000E+00:0:0:0:0:0:5CA9:Probed at Torino, Iref = 0:with:trim:bits:0:No loaded to any board yet
TSMC_N2WX39-13H1:TSMC_N2WX39-13H1_1_8:1:8:2:green:4:2:Torino:0:0:0:none:Torino:3.96718e-06:7:1.199642:20:1.1948:23:0.9002556:8:0:1.113E-08:8.312E-02:-9.433E-09:1.256E-01:0:0:0:0:0:5C18:Probed at Torino, Iref = 3.96718e-06:with:trim:bits:7:No loaded to any board yet
TSMC_N2WX39-13H1:TSMC_N2WX39-13H1_8_8:8:8:1:yellow:4:1:Torino:0:0:0:none:Torino:4.001199e-06:7:1.203241:24:1.197995:17:0.8986718:3:0:6.633E-09:1.002E-01:9.100E-09:1.405E-01:0:0:0:0:0:5C88:Probed at Torino, Iref = 4.001199e-06:with:trim:bits:7:No loaded to any board yet
TSMC_N2WX39-13H1:TSMC_N2WX39-13H1_6_7:6:7:10:red:4:10:Torino:0:0:0:none:Torino:0:0:0:0:0:0:0:0:0:0.000E+00:0.000E+00:0.000E+00:0.000E+00:0:0:0:0:0:5C67:Probed at Torino, Iref = 0:with:trim:bits:0:No loaded to any board yet
TSMC_N2WX39-13H1:TSMC_N2WX39-13H1_6_8:6:8:1:yellow:4:1:Torino:0:0:0:none:Torino:4.05676e-06:8:1.202189:19:1.1988:14:0.9003454:5:0:1.049E-08:9.835E-02:1.233E-09:1.389E-01:0:0:0:0:0:5C68:Probed at Torino, Iref = 4.05676e-06:with:trim:bits:8:No loaded to any board yet
TSMC_N2WX39-13H1:TSMC_N2WX39-13H1_9_7:9:7:2:green:4:2:Torino:0:0:0:none:Torino:3.992525e-06:5:1.211065:24:1.198606:18:0.9067879:8:0:3.627E-09:9.177E-02:-1.617E-08:1.335E-01:0:0:0:0:0:5C97:Probed at Torino, Iref = 3.992525e-06:with:trim:bits:5:No loaded to any board yet
TSMC_N2WX39-13H1:TSMC_N2WX39-13H1_7_7:7:7:1:yellow:4:1:Torino:0:0:0:none:Torino:4.049229e-06:10:1.200643:29:1.204798:12:0.8995978:7:0:8.557E-09:9.309E-02:4.200E-09:1.345E-01:0:0:0:0:0:5C77:Probed at Torino, Iref = 4.049229e-06:with:trim:bits:10:No loaded to any board yet
TSMC_N2WX39-13H1:TSMC_N2WX39-13H1_4_7:4:7:1:yellow:4:1:Torino:0:0:0:none:Torino:3.982203e-06:7:1.205186:22:1.199737:16:0.8944939:7:0:-3.343E-09:9.173E-02:-7.033E-09:1.332E-01:0:0:0:0:0:5C47:Probed at Torino, Iref = 3.982203e-06:with:trim:bits:7:No loaded to any board yet
TSMC_N2WX39-13H1:TSMC_N2WX39-13H1_3_8:3:8:10:red:4:10:Torino:0:0:0:none:Torino:3.979052e-06:11:1.202471:24:1.203838:16:0.8975771:11:0:-2.413E-08:8.925E-01:-8.583E-08:1.230E-01:0:0:0:0:0:5C38:Probed at Torino, Iref = 3.979052e-06:with:trim:bits:11:No loaded to any board yet
TSMC_N2WX39-13H1:TSMC_N2WX39-13H1_1_7:1:7:1:yellow:4:1:Torino:0:0:0:none:Torino:4.055512e-06:9:1.193668:21:1.192857:19:0.90569:8:0:2.200E-08:4.584E-01:-1.738E-07:1.274E-01:0:0:0:0:0:5C17:Probed at Torino, Iref = 4.055512e-06:with:trim:bits:9:No loaded to any board yet
TSMC_N2WX39-13H1:TSMC_N2WX39-13H1_2_7:2:7:1:yellow:4:1:Torino:0:0:0:none:Torino:4.050495e-06:7:1.201769:22:1.205424:22:0.9025754:10:0:-3.533E-10:9.063E-02:1.767E-09:1.325E-01:0:0:0:0:0:5C27:Probed at Torino, Iref = 4.050495e-06:with:trim:bits:7:No loaded to any board yet
TSMC_N2WX39-13H1:TSMC_N2WX39-13H1_4_6:4:6:2:green:4:2:Torino:0:0:0:none:Torino:4.038073e-06:7:1.197511:23:1.201394:19:0.9014907:8:0:8.287E-09:8.857E-02:1.163E-08:1.306E-01:0:0:0:0:0:5C46:Probed at Torino, Iref = 4.038073e-06:with:trim:bits:7:No loaded to any board yet
TSMC_N2WX39-13H1:TSMC_N2WX39-13H1_3_7:3:7:10:red:4:10:Torino:0:0:0:none:Torino:0:0:0:0:0:0:0:0:0:0.000E+00:0.000E+00:0.000E+00:0.000E+00:0:0:0:0:0:5C37:Probed at Torino, Iref = 0:with:trim:bits:0:No loaded to any board yet
TSMC_N2WX39-13H1:TSMC_N2WX39-13H1_2_6:2:6:2:green:4:2:Torino:0:0:0:none:Torino:4.038581e-06:8:1.19834:25:1.190574:15:0.900857:8:0:-2.290E-09:8.928E-02:-7.000E-10:1.314E-01:0:0:0:0:0:5C26:Probed at Torino, Iref = 4.038581e-06:with:trim:bits:8:No loaded to any board yet
TSMC_N2WX39-13H1:TSMC_N2WX39-13H1_5_7:5:7:2:green:4:2:Torino:0:0:0:none:Torino:3.969042e-06:8:1.206448:22:1.201902:19:0.9014328:9:0:1.267E-09:8.016E-02:-1.667E-10:1.230E-01:0:0:0:0:0:5C57:Probed at Torino, Iref = 3.969042e-06:with:trim:bits:8:No loaded to any board yet
TSMC_N2WX39-13H1:TSMC_N2WX39-13H1_6_6:6:6:2:green:4:2:Torino:0:0:0:none:Torino:3.980068e-06:9:1.195386:21:1.198971:17:0.8985454:6:0:-1.520E-09:9.371E-02:-1.110E-08:1.350E-01:0:0:0:0:0:5C66:Probed at Torino, Iref = 3.980068e-06:with:trim:bits:9:No loaded to any board yet
TSMC_N2WX39-13H1:TSMC_N2WX39-13H1_8_7:8:7:2:green:4:2:Torino:0:0:0:none:Torino:4.040965e-06:8:1.20198:20:1.202029:18:0.9019473:11:0:8.067E-09:9.084E-02:1.260E-08:1.326E-01:0:0:0:0:0:5C87:Probed at Torino, Iref = 4.040965e-06:with:trim:bits:8:No loaded to any board yet
TSMC_N2WX39-13H1:TSMC_N2WX39-13H1_2_5:2:5:10:red:4:10:Torino:0:0:0:none:Torino:0:0:0:0:0:0:0:0:0:0.000E+00:0.000E+00:0.000E+00:0.000E+00:0:0:0:0:0:5C25:Probed at Torino, Iref = 0:with:trim:bits:0:No loaded to any board yet
TSMC_N2WX39-13H1:TSMC_N2WX39-13H1_10_7:10:7:2:green:4:2:Torino:0:0:0:none:Torino:3.94915e-06:7:1.201306:23:1.197497:18:0.8981963:10:0:1.627E-09:8.321E-02:-3.200E-09:1.257E-01:0:0:0:0:0:5CA7:Probed at Torino, Iref = 3.94915e-06:with:trim:bits:7:No loaded to any board yet
TSMC_N2WX39-13H1:TSMC_N2WX39-13H1_5_4:5:4:1:yellow:4:1:Torino:0:0:0:none:Torino:3.962437e-06:10:1.20368:22:1.199974:13:0.8949661:7:0:4.103E-09:8.915E-02:-4.900E-09:1.307E-01:0:0:0:0:0:5C54:Probed at Torino, Iref = 3.962437e-06:with:trim:bits:10:No loaded to any board yet
TSMC_N2WX39-13H1:TSMC_N2WX39-13H1_9_6:9:6:2:green:4:2:Torino:0:0:0:none:Torino:4.010987e-06:8:1.201453:22:1.202559:21:0.8989192:9:0:4.790E-09:9.154E-02:4.067E-09:1.331E-01:0:0:0:0:0:5C96:Probed at Torino, Iref = 4.010987e-06:with:trim:bits:8:No loaded to any board yet
TSMC_N2WX39-13H1:TSMC_N2WX39-13H1_8_6:8:6:10:red:4:10:Torino:0:0:0:none:Torino:3.968948e-06:6:1.196623:19:1.195983:15:0.8974937:9:0:1.176E-08:9.099E-02:7.053E-06:8.698E-01:0:0:0:0:0:5C86:Probed at Torino, Iref = 3.968948e-06:with:trim:bits:6:No loaded to any board yet
TSMC_N2WX39-13H1:TSMC_N2WX39-13H1_3_5:3:5:10:red:4:10:Torino:0:0:0:none:Torino:0:0:0:0:0:0:0:0:0:0.000E+00:0.000E+00:0.000E+00:0.000E+00:0:0:0:0:0:5C35:Probed at Torino, Iref = 0:with:trim:bits:0:No loaded to any board yet
TSMC_N2WX39-13H1:TSMC_N2WX39-13H1_7_6:7:6:1:yellow:4:1:Torino:0:0:0:none:Torino:4.040815e-06:10:1.20043:24:1.18948:15:0.9014083:6:0:3.330E-09:9.225E-02:5.067E-09:1.338E-01:0:0:0:0:0:5C76:Probed at Torino, Iref = 4.040815e-06:with:trim:bits:10:No loaded to any board yet
TSMC_N2WX39-13H1:TSMC_N2WX39-13H1_6_5:6:5:2:green:4:2:Torino:0:0:0:none:Torino:4.071455e-06:8:1.199744:21:1.200575:20:0.899042:10:0:1.010E-08:8.979E-02:-8.267E-09:1.315E-01:0:0:0:0:0:5C65:Probed at Torino, Iref = 4.071455e-06:with:trim:bits:8:No loaded to any board yet
TSMC_N2WX39-13H1:TSMC_N2WX39-13H1_3_6:3:6:2:green:4:2:Torino:0:0:0:none:Torino:3.959375e-06:9:1.199956:23:1.196847:17:0.9018201:9:0:4.943E-09:9.002E-02:2.600E-09:1.319E-01:0:0:0:0:0:5C36:Probed at Torino, Iref = 3.959375e-06:with:trim:bits:9:No loaded to any board yet
TSMC_N2WX39-13H1:TSMC_N2WX39-13H1_3_4:3:4:2:green:4:2:Torino:0:0:0:none:Torino:3.98272e-06:7:1.195514:25:1.195782:19:0.9008763:11:0:7.840E-09:8.750E-02:-1.680E-08:1.297E-01:0:0:0:0:0:5C34:Probed at Torino, Iref = 3.98272e-06:with:trim:bits:7:No loaded to any board yet
TSMC_N2WX39-13H1:TSMC_N2WX39-13H1_8_5:8:5:2:green:4:2:Torino:0:0:0:none:Torino:4.038195e-06:9:1.206254:30:1.204325:24:0.9021894:10:0:9.933E-10:8.846E-02:-1.110E-08:1.306E-01:0:0:0:0:0:5C85:Probed at Torino, Iref = 4.038195e-06:with:trim:bits:9:No loaded to any board yet
TSMC_N2WX39-13H1:TSMC_N2WX39-13H1_6_4:6:4:2:green:4:2:Torino:0:0:0:none:Torino:4.005215e-06:8:1.198208:28:1.205029:22:0.9047752:8:0:3.833E-10:9.003E-02:5.267E-09:1.319E-01:0:0:0:0:0:5C64:Probed at Torino, Iref = 4.005215e-06:with:trim:bits:8:No loaded to any board yet
TSMC_N2WX39-13H1:TSMC_N2WX39-13H1_1_6:1:6:10:red:4:10:Torino:0:0:0:none:Torino:4.05248e-06:8:1.207614:20:1.202086:19:0.906471:8:0:-3.730E-09:8.468E-02:9.333E-09:1.276E-01:0:0:0:0:0:5C16:Probed at Torino, Iref = 4.05248e-06:with:trim:bits:8:No loaded to any board yet
TSMC_N2WX39-13H1:TSMC_N2WX39-13H1_4_4:4:4:2:green:4:2:Torino:0:0:0:none:Torino:3.970172e-06:8:1.202112:26:1.208333:24:0.9000403:9:0:8.150E-09:8.522E-02:1.390E-08:1.275E-01:0:0:0:0:0:5C44:Probed at Torino, Iref = 3.970172e-06:with:trim:bits:8:No loaded to any board yet
TSMC_N2WX39-13H1:TSMC_N2WX39-13H1_4_5:4:5:1:yellow:4:1:Torino:0:0:0:none:Torino:4.011121e-06:6:1.206256:22:1.199157:20:0.9040946:8:0:1.470E-08:9.187E-02:2.200E-09:1.336E-01:0:0:0:0:0:5C45:Probed at Torino, Iref = 4.011121e-06:with:trim:bits:6:No loaded to any board yet
TSMC_N2WX39-13H1:TSMC_N2WX39-13H1_9_5:9:5:2:green:4:2:Torino:0:0:0:none:Torino:4.015899e-06:8:1.202439:22:1.201125:17:0.9004623:8:0:5.403E-09:8.821E-02:-4.467E-09:1.302E-01:0:0:0:0:0:5C95:Probed at Torino, Iref = 4.015899e-06:with:trim:bits:8:No loaded to any board yet
TSMC_N2WX39-13H1:TSMC_N2WX39-13H1_7_5:7:5:2:green:4:2:Torino:0:0:0:none:Torino:3.929182e-06:7:1.206444:24:1.198395:23:0.8980094:11:0:2.190E-09:8.887E-02:9.600E-09:1.306E-01:0:0:0:0:0:5C75:Probed at Torino, Iref = 3.929182e-06:with:trim:bits:7:No loaded to any board yet
TSMC_N2WX39-13H1:TSMC_N2WX39-13H1_10_5:10:5:10:red:4:10:Torino:0:0:0:none:Torino:3.948971e-06:6:1.198272:27:1.195259:11:1.10607:6:0:-6.620E-09:9.765E-02:1.520E-08:1.481E-01:0:0:0:0:0:5CA5:Probed at Torino, Iref = 3.948971e-06:with:trim:bits:6:No loaded to any board yet
TSMC_N2WX39-13H1:TSMC_N2WX39-13H1_5_5:5:5:1:yellow:4:1:Torino:0:0:0:none:Torino:3.999306e-06:7:1.198239:23:1.198555:21:0.9012214:2:0:6.733E-09:2.684E-01:-1.464E-06:1.633E-01:0:0:0:0:0:5C55:Probed at Torino, Iref = 3.999306e-06:with:trim:bits:7:No loaded to any board yet
TSMC_N2WX39-13H1:TSMC_N2WX39-13H1_2_4:2:4:2:green:4:2:Torino:0:0:0:none:Torino:3.970273e-06:9:1.211386:24:1.208451:24:0.9014888:8:0:5.843E-09:8.540E-02:1.270E-08:1.279E-01:0:0:0:0:0:5C24:Probed at Torino, Iref = 3.970273e-06:with:trim:bits:9:No loaded to any board yet
TSMC_N2WX39-13H1:TSMC_N2WX39-13H1_8_4:8:4:2:green:4:2:Torino:0:0:0:none:Torino:4.018344e-06:6:1.195811:25:1.208667:20:0.8983385:7:0:3.713E-09:9.102E-02:-1.293E-08:1.326E-01:0:0:0:0:0:5C84:Probed at Torino, Iref = 4.018344e-06:with:trim:bits:6:No loaded to any board yet
TSMC_N2WX39-13H1:TSMC_N2WX39-13H1_2_3:2:3:10:red:4:10:Torino:0:0:0:none:Torino:0:0:0:0:0:0:0:0:0:0.000E+00:0.000E+00:0.000E+00:0.000E+00:0:0:0:0:0:5C23:Probed at Torino, Iref = 0:with:trim:bits:0:No loaded to any board yet
TSMC_N2WX39-13H1:TSMC_N2WX39-13H1_9_4:9:4:10:red:4:10:Torino:0:0:0:none:Torino:4.003139e-06:8:1.196343:23:1.196553:15:0.843317:22:0:1.903E-08:7.343E-01:-6.517E-08:1.207E-01:0:0:0:0:0:5C94:Probed at Torino, Iref = 4.003139e-06:with:trim:bits:8:No loaded to any board yet
TSMC_N2WX39-13H1:TSMC_N2WX39-13H1_7_4:7:4:2:green:4:2:Torino:0:0:0:none:Torino:3.940392e-06:7:1.198991:26:1.195744:19:0.8957303:7:0:1.065E-08:9.051E-02:8.067E-09:1.322E-01:0:0:0:0:0:5C74:Probed at Torino, Iref = 3.940392e-06:with:trim:bits:7:No loaded to any board yet
TSMC_N2WX39-13H1:TSMC_N2WX39-13H1_5_1:5:1:2:green:4:2:Torino:0:0:0:none:Torino:3.984939e-06:8:1.192883:23:1.193778:23:0.9040783:12:0:5.557E-09:7.859E-02:-5.433E-09:1.218E-01:0:0:0:0:0:5C51:Probed at Torino, Iref = 3.984939e-06:with:trim:bits:8:No loaded to any board yet
TSMC_N2WX39-13H1:TSMC_N2WX39-13H1_7_2:7:2:2:green:4:2:Torino:0:0:0:none:Torino:4.011824e-06:9:1.198218:22:1.20433:16:0.9000545:11:0:4.000E-10:8.424E-02:-1.070E-08:1.266E-01:0:0:0:0:0:5C72:Probed at Torino, Iref = 4.011824e-06:with:trim:bits:9:No loaded to any board yet
TSMC_N2WX39-13H1:TSMC_N2WX39-13H1_8_3:8:3:1:yellow:4:1:Torino:0:0:0:none:Torino:3.975583e-06:9:1.203107:21:1.203016:21:0.8994605:9:0:6.590E-09:8.518E-02:-9.067E-09:1.278E-01:0:0:0:0:0:5C83:Probed at Torino, Iref = 3.975583e-06:with:trim:bits:9:No loaded to any board yet
TSMC_N2WX39-13H1:TSMC_N2WX39-13H1_9_3:9:3:2:green:4:2:Torino:0:0:0:none:Torino:4.02381e-06:9:1.20046:23:1.196853:21:0.9008871:10:0:1.803E-09:8.546E-02:-9.833E-09:1.279E-01:0:0:0:0:0:5C93:Probed at Torino, Iref = 4.02381e-06:with:trim:bits:9:No loaded to any board yet
TSMC_N2WX39-13H1:TSMC_N2WX39-13H1_3_3:3:3:2:green:4:2:Torino:0:0:0:none:Torino:3.985495e-06:7:1.203508:22:1.194099:19:0.898575:10:0:-6.267E-10:8.996E-02:-1.063E-08:1.319E-01:0:0:0:0:0:5C33:Probed at Torino, Iref = 3.985495e-06:with:trim:bits:7:No loaded to any board yet
TSMC_N2WX39-13H1:TSMC_N2WX39-13H1_6_3:6:3:2:green:4:2:Torino:0:0:0:none:Torino:3.990651e-06:9:1.200535:20:1.196093:18:0.9007087:10:0:-9.633E-10:8.334E-02:-3.200E-09:1.258E-01:0:0:0:0:0:5C63:Probed at Torino, Iref = 3.990651e-06:with:trim:bits:9:No loaded to any board yet
TSMC_N2WX39-13H1:TSMC_N2WX39-13H1_4_3:4:3:1:yellow:4:1:Torino:0:0:0:none:Torino:4.016111e-06:6:1.210456:24:1.199237:17:0.8992102:8:0:9.467E-09:9.094E-02:-1.847E-08:1.326E-01:0:0:0:0:0:5C43:Probed at Torino, Iref = 4.016111e-06:with:trim:bits:6:No loaded to any board yet
TSMC_N2WX39-13H1:TSMC_N2WX39-13H1_6_1:6:1:2:green:4:2:Torino:0:0:0:none:Torino:4.015886e-06:7:1.208492:16:1.198514:14:0.9013339:9:0:-5.643E-09:8.451E-02:8.333E-10:1.270E-01:0:0:0:0:0:5C61:Probed at Torino, Iref = 4.015886e-06:with:trim:bits:7:No loaded to any board yet
TSMC_N2WX39-13H1:TSMC_N2WX39-13H1_7_3:7:3:1:yellow:4:1:Torino:0:0:0:none:Torino:3.987756e-06:11:1.187812:23:1.198897:21:0.8987287:10:0:2.633E-10:8.721E-02:6.333E-09:1.292E-01:0:0:0:0:0:5C73:Probed at Torino, Iref = 3.987756e-06:with:trim:bits:11:No loaded to any board yet
TSMC_N2WX39-13H1:TSMC_N2WX39-13H1_5_3:5:3:2:green:4:2:Torino:0:0:0:none:Torino:3.975306e-06:5:1.202618:23:1.201025:19:0.8991086:10:0:3.947E-09:8.608E-02:-1.047E-08:1.284E-01:0:0:0:0:0:5C53:Probed at Torino, Iref = 3.975306e-06:with:trim:bits:5:No loaded to any board yet
TSMC_N2WX39-13H1:TSMC_N2WX39-13H1_6_2:6:2:1:yellow:4:1:Torino:0:0:0:none:Torino:4.028152e-06:6:1.199728:19:1.200076:20:0.8978713:9:0:2.058E-04:2.768E-02:2.072E-04:2.723E-02:0:0:0:0:0:5C62:Probed at Torino, Iref = 4.028152e-06:with:trim:bits:6:No loaded to any board yet
TSMC_N2WX39-13H1:TSMC_N2WX39-13H1_8_2:8:2:10:red:4:10:Torino:0:0:0:none:Torino:4.025278e-06:10:1.212526:24:1.201208:17:0.9007626:10:0:6.717E-09:8.513E-02:-3.667E-10:1.276E-01:0:0:0:0:0:5C82:Probed at Torino, Iref = 4.025278e-06:with:trim:bits:10:No loaded to any board yet
TSMC_N2WX39-13H1:TSMC_N2WX39-13H1_4_2:4:2:2:green:4:2:Torino:0:0:0:none:Torino:3.994688e-06:5:1.194072:23:1.201894:20:0.8959281:11:0:2.157E-09:8.101E-02:1.193E-08:1.235E-01:0:0:0:0:0:5C42:Probed at Torino, Iref = 3.994688e-06:with:trim:bits:5:No loaded to any board yet
TSMC_N2WX39-13H1:TSMC_N2WX39-13H1_5_2:5:2:2:green:4:2:Torino:0:0:0:none:Torino:3.940646e-06:7:1.197621:27:1.206142:20:0.9026998:8:0:2.073E-04:2.512E-02:2.089E-04:2.456E-02:0:0:0:0:0:5C52:Probed at Torino, Iref = 3.940646e-06:with:trim:bits:7:No loaded to any board yet
