%CMSwaferCode:CMSchipCode:ChipColumn:ChipRow:Grading:Color:CutVersion:Status:Location:ChipBoardType:BoardNumber:Dose:Sensor:ProbingSite:Iref:IrefTrim:Vref_A:Vref_A_Trim:Vref_D:Vref_D_Trim:Vref_ADC:Vref_ADC_Trim:MON_ADC_Trim:VCAL_HIGH_slope:VCAL_HIGH_offset:VCAL_MED_slope:VCAL_MED_offset:TrefTsensors:Nf1:Nf2:Nf3:Nf4:RD53chipID:Comment:BoardComment:
TSMC_N25A67-08E6:TSMC_N25A67-08E6_5_7:5:7:2:green:4:2:IZM:0:0:0:none:Bonn:3.943272e-06:5:1.20137:21:1.203299:19:0.9002539:8:0:2.090E-04:1.752E-02:2.094E-04:1.757E-02:0:0:0:0:0:1757:Probed at Bonn, Iref = 3.943272e-06 with trim bits 5:No loaded to any board yet
TSMC_N25A67-08E6:TSMC_N25A67-08E6_3_9:3:9:10:red:4:10:IZM:0:0:0:none:Bonn:0:0:0:0:0:0:0:0:0:0.000E+00:0.000E+00:0.000E+00:0.000E+00:0:0:0:0:0:1739:Probed at Bonn, Iref = 0 with trim bits 0:No loaded to any board yet
TSMC_N25A67-08E6:TSMC_N25A67-08E6_8_11:8:11:1:yellow:4:1:IZM:0:0:0:none:Bonn:4.003997e-06:6:1.20341:20:1.200387:19:0.8991663:10:0:2.083E-04:2.126E-02:2.086E-04:2.139E-02:0:0:0:0:0:178B:Probed at Bonn, Iref = 4.003997e-06 with trim bits 6:No loaded to any board yet
TSMC_N25A67-08E6:TSMC_N25A67-08E6_7_7:7:7:10:red:4:10:IZM:0:0:0:none:Bonn:3.981173e-06:5:1.189443:23:1.195791:24:0.8988445:10:0:2.088E-04:1.734E-02:2.092E-04:1.746E-02:0:0:0:0:0:1777:Probed at Bonn, Iref = 3.981173e-06 with trim bits 5:No loaded to any board yet
TSMC_N25A67-08E6:TSMC_N25A67-08E6_6_2:6:2:10:red:4:10:IZM:0:0:0:none:Bonn:0:0:0:0:0:0:0:0:0:0.000E+00:0.000E+00:0.000E+00:0.000E+00:0:0:0:0:0:1762:Probed at Bonn, Iref = 0 with trim bits 0:No loaded to any board yet
TSMC_N25A67-08E6:TSMC_N25A67-08E6_2_10:2:10:1:yellow:4:1:IZM:0:0:0:none:Bonn:4.003765e-06:5:1.198384:23:1.189125:23:0.8988144:8:0:2.092E-04:1.805E-02:2.096E-04:1.823E-02:0:0:0:0:0:172A:Probed at Bonn, Iref = 4.003765e-06 with trim bits 5:No loaded to any board yet
TSMC_N25A67-08E6:TSMC_N25A67-08E6_2_7:2:7:1:yellow:4:1:IZM:0:0:0:none:Bonn:4.009442e-06:9:1.201534:27:1.203623:21:0.9016377:12:0:2.088E-04:2.004E-02:2.092E-04:2.027E-02:0:0:0:0:0:1727:Probed at Bonn, Iref = 4.009442e-06 with trim bits 9:No loaded to any board yet
TSMC_N25A67-08E6:TSMC_N25A67-08E6_6_4:6:4:1:yellow:4:1:IZM:0:0:0:none:Bonn:4.001402e-06:4:1.202205:24:1.203182:23:0.8950924:11:0:2.070E-04:2.284E-02:2.073E-04:2.293E-02:0:0:0:0:0:1764:Probed at Bonn, Iref = 4.001402e-06 with trim bits 4:No loaded to any board yet
TSMC_N25A67-08E6:TSMC_N25A67-08E6_2_3:2:3:10:red:4:10:IZM:0:0:0:none:Bonn:0:0:0:0:0:0:0:0:0:0.000E+00:0.000E+00:0.000E+00:0.000E+00:0:0:0:0:0:1723:Probed at Bonn, Iref = 0 with trim bits 0:No loaded to any board yet
TSMC_N25A67-08E6:TSMC_N25A67-08E6_6_8:6:8:10:red:4:10:IZM:0:0:0:none:Bonn:0:0:0:0:0:0:0:0:0:0.000E+00:0.000E+00:0.000E+00:0.000E+00:0:0:0:0:0:1768:Probed at Bonn, Iref = 0 with trim bits 0:No loaded to any board yet
TSMC_N25A67-08E6:TSMC_N25A67-08E6_4_7:4:7:1:yellow:4:1:IZM:0:0:0:none:Bonn:3.947046e-06:5:1.202281:20:1.205882:20:0.8988237:8:0:2.085E-04:1.835E-02:2.088E-04:1.859E-02:0:0:0:0:0:1747:Probed at Bonn, Iref = 3.947046e-06 with trim bits 5:No loaded to any board yet
TSMC_N25A67-08E6:TSMC_N25A67-08E6_5_8:5:8:2:green:4:2:IZM:0:0:0:none:Bonn:3.971801e-06:6:1.2016:20:1.205247:20:0.9014829:11:0:2.094E-04:1.876E-02:2.096E-04:1.899E-02:0:0:0:0:0:1758:Probed at Bonn, Iref = 3.971801e-06 with trim bits 6:No loaded to any board yet
TSMC_N25A67-08E6:TSMC_N25A67-08E6_10_6:10:6:1:yellow:4:1:IZM:0:0:0:none:Bonn:4.006884e-06:9:1.196434:26:1.193684:19:0.9041001:12:0:2.084E-04:2.398E-02:2.088E-04:2.418E-02:0:0:0:0:0:17A6:Probed at Bonn, Iref = 4.006884e-06 with trim bits 9:No loaded to any board yet
TSMC_N25A67-08E6:TSMC_N25A67-08E6_5_10:5:10:10:red:4:10:IZM:0:0:0:none:Bonn:4.038845e-06:12:1.195415:23:1.196603:22:0.8962314:13:0:2.088E-04:1.544E-02:2.092E-04:1.562E-02:0:0:0:0:0:175A:Probed at Bonn, Iref = 4.038845e-06 with trim bits 12:No loaded to any board yet
TSMC_N25A67-08E6:TSMC_N25A67-08E6_3_10:3:10:1:yellow:4:1:IZM:0:0:0:none:Bonn:4.042687e-06:7:1.203563:24:1.196597:17:0.8997997:11:0:2.091E-04:1.967E-02:2.094E-04:1.988E-02:0:0:0:0:0:173A:Probed at Bonn, Iref = 4.042687e-06 with trim bits 7:No loaded to any board yet
TSMC_N25A67-08E6:TSMC_N25A67-08E6_8_3:8:3:2:green:4:2:IZM:0:0:0:none:Bonn:4.048744e-06:8:1.186827:23:1.209761:24:0.899045:6:0:2.087E-04:1.957E-02:2.092E-04:1.959E-02:0:0:0:0:0:1783:Probed at Bonn, Iref = 4.048744e-06 with trim bits 8:No loaded to any board yet
TSMC_N25A67-08E6:TSMC_N25A67-08E6_7_11:7:11:10:red:4:10:IZM:0:0:0:none:Bonn:3.946073e-06:5:1.200572:17:1.193671:21:0.8999419:11:0:1.647E-08:2.393E-01:1.193E-08:2.404E-01:0:0:0:0:0:177B:Probed at Bonn, Iref = 3.946073e-06 with trim bits 5:No loaded to any board yet
TSMC_N25A67-08E6:TSMC_N25A67-08E6_6_9:6:9:2:green:4:2:IZM:0:0:0:none:Bonn:4.006505e-06:7:1.19671:24:1.204566:24:0.8986553:11:0:2.090E-04:1.705E-02:2.093E-04:1.718E-02:0:0:0:0:0:1769:Probed at Bonn, Iref = 4.006505e-06 with trim bits 7:No loaded to any board yet
TSMC_N25A67-08E6:TSMC_N25A67-08E6_2_9:2:9:10:red:4:10:IZM:0:0:0:none:Bonn:0:0:0:0:0:0:0:0:0:0.000E+00:0.000E+00:0.000E+00:0.000E+00:0:0:0:0:0:1729:Probed at Bonn, Iref = 0 with trim bits 0:No loaded to any board yet
TSMC_N25A67-08E6:TSMC_N25A67-08E6_4_2:4:2:2:green:4:2:IZM:0:0:0:none:Bonn:4.023169e-06:7:1.210254:24:1.196045:19:0.9027882:12:0:2.102E-04:1.606E-02:2.105E-04:1.623E-02:0:0:0:0:0:1742:Probed at Bonn, Iref = 4.023169e-06 with trim bits 7:No loaded to any board yet
TSMC_N25A67-08E6:TSMC_N25A67-08E6_2_6:2:6:1:yellow:4:1:IZM:0:0:0:none:Bonn:3.968788e-06:5:1.201755:18:1.205308:20:0.897509:9:0:2.075E-04:2.145E-02:2.079E-04:2.155E-02:0:0:0:0:0:1726:Probed at Bonn, Iref = 3.968788e-06 with trim bits 5:No loaded to any board yet
TSMC_N25A67-08E6:TSMC_N25A67-08E6_7_9:7:9:1:yellow:4:1:IZM:0:0:0:none:Bonn:4.018125e-06:6:1.19812:18:1.197552:20:0.9045967:12:0:2.103E-04:1.903E-02:2.107E-04:1.910E-02:0:0:0:0:0:1779:Probed at Bonn, Iref = 4.018125e-06 with trim bits 6:No loaded to any board yet
TSMC_N25A67-08E6:TSMC_N25A67-08E6_4_12:4:12:10:red:4:10:IZM:0:0:0:none:Bonn:0:0:0:0:0:0:0:0:0:0.000E+00:0.000E+00:0.000E+00:0.000E+00:0:0:0:0:0:174C:Probed at Bonn, Iref = 0 with trim bits 0:No loaded to any board yet
TSMC_N25A67-08E6:TSMC_N25A67-08E6_5_11:5:11:10:red:4:10:IZM:0:0:0:none:Bonn:3.970183e-06:7:1.205448:24:1.201288:26:0.9000921:14:0:2.080E-04:2.316E-02:2.082E-04:2.342E-02:0:0:0:0:0:175B:Probed at Bonn, Iref = 3.970183e-06 with trim bits 7:No loaded to any board yet
TSMC_N25A67-08E6:TSMC_N25A67-08E6_4_6:4:6:1:yellow:4:1:IZM:0:0:0:none:Bonn:4.044473e-06:7:1.207804:16:1.199926:18:0.8974652:9:0:2.084E-04:1.780E-02:2.089E-04:1.771E-02:0:0:0:0:0:1746:Probed at Bonn, Iref = 4.044473e-06 with trim bits 7:No loaded to any board yet
TSMC_N25A67-08E6:TSMC_N25A67-08E6_1_6:1:6:10:red:4:10:IZM:0:0:0:none:Bonn:3.993326e-06:4:1.198203:19:1.198934:21:0.8984938:6:0:2.084E-04:2.150E-02:2.088E-04:2.148E-02:0:0:0:0:0:1716:Probed at Bonn, Iref = 3.993326e-06 with trim bits 4:No loaded to any board yet
TSMC_N25A67-08E6:TSMC_N25A67-08E6_3_5:3:5:10:red:4:10:IZM:0:0:0:none:Bonn:4.049129e-06:8:1.199834:26:1.199469:21:0.8981527:10:0:2.077E-04:2.171E-02:2.080E-04:2.188E-02:0:0:0:0:0:1735:Probed at Bonn, Iref = 4.049129e-06 with trim bits 8:No loaded to any board yet
TSMC_N25A67-08E6:TSMC_N25A67-08E6_7_10:7:10:10:red:4:10:IZM:0:0:0:none:Bonn:0:0:0:0:0:0:0:0:0:0.000E+00:0.000E+00:0.000E+00:0.000E+00:0:0:0:0:0:177A:Probed at Bonn, Iref = 0 with trim bits 0:No loaded to any board yet
TSMC_N25A67-08E6:TSMC_N25A67-08E6_7_2:7:2:2:green:4:2:IZM:0:0:0:none:Bonn:3.981436e-06:8:1.19382:23:1.201039:19:0.9012901:10:0:2.097E-04:1.911E-02:2.100E-04:1.923E-02:0:0:0:0:0:1772:Probed at Bonn, Iref = 3.981436e-06 with trim bits 8:No loaded to any board yet
TSMC_N25A67-08E6:TSMC_N25A67-08E6_10_7:10:7:10:red:4:10:IZM:0:0:0:none:Bonn:0:0:0:0:0:0:0:0:0:0.000E+00:0.000E+00:0.000E+00:0.000E+00:0:0:0:0:0:17A7:Probed at Bonn, Iref = 0 with trim bits 0:No loaded to any board yet
TSMC_N25A67-08E6:TSMC_N25A67-08E6_9_7:9:7:1:yellow:4:1:IZM:0:0:0:none:Bonn:4.001891e-06:6:1.206235:26:1.198754:24:0.9003186:12:0:2.082E-04:2.042E-02:2.086E-04:2.057E-02:0:0:0:0:0:1797:Probed at Bonn, Iref = 4.001891e-06 with trim bits 6:No loaded to any board yet
TSMC_N25A67-08E6:TSMC_N25A67-08E6_9_9:9:9:1:yellow:4:1:IZM:0:0:0:none:Bonn:3.953925e-06:6:1.191721:23:1.205251:20:0.899423:12:0:2.087E-04:2.021E-02:2.092E-04:2.030E-02:0:0:0:0:0:1799:Probed at Bonn, Iref = 3.953925e-06 with trim bits 6:No loaded to any board yet
TSMC_N25A67-08E6:TSMC_N25A67-08E6_6_1:6:1:10:red:4:10:IZM:0:0:0:none:Bonn:0:0:0:0:0:0:0:0:0:0.000E+00:0.000E+00:0.000E+00:0.000E+00:0:0:0:0:0:1761:Probed at Bonn, Iref = 0 with trim bits 0:No loaded to any board yet
TSMC_N25A67-08E6:TSMC_N25A67-08E6_3_3:3:3:1:yellow:4:1:IZM:0:0:0:none:Bonn:4.063379e-06:6:1.200283:27:1.198871:19:0.9001156:12:0:2.091E-04:1.773E-02:2.095E-04:1.771E-02:0:0:0:0:0:1733:Probed at Bonn, Iref = 4.063379e-06 with trim bits 6:No loaded to any board yet
TSMC_N25A67-08E6:TSMC_N25A67-08E6_4_8:4:8:1:yellow:4:1:IZM:0:0:0:none:Bonn:3.997465e-06:7:1.203963:22:1.206587:16:0.9019691:11:0:2.094E-04:1.768E-02:2.099E-04:1.779E-02:0:0:0:0:0:1748:Probed at Bonn, Iref = 3.997465e-06 with trim bits 7:No loaded to any board yet
TSMC_N25A67-08E6:TSMC_N25A67-08E6_9_8:9:8:1:yellow:4:1:IZM:0:0:0:none:Bonn:3.967035e-06:7:1.203288:22:1.198061:21:0.903224:10:0:2.078E-04:2.544E-02:2.082E-04:2.537E-02:0:0:0:0:0:1798:Probed at Bonn, Iref = 3.967035e-06 with trim bits 7:No loaded to any board yet
TSMC_N25A67-08E6:TSMC_N25A67-08E6_5_2:5:2:1:yellow:4:1:IZM:0:0:0:none:Bonn:3.972204e-06:8:1.190836:27:1.199983:19:0.8970597:11:0:2.086E-04:1.680E-02:2.090E-04:1.686E-02:0:0:0:0:0:1752:Probed at Bonn, Iref = 3.972204e-06 with trim bits 8:No loaded to any board yet
TSMC_N25A67-08E6:TSMC_N25A67-08E6_6_3:6:3:10:red:4:10:IZM:0:0:0:none:Bonn:3.980233e-06:8:1.195278:17:1.206559:22:0.9018417:11:0:2.097E-04:1.718E-02:2.100E-04:1.727E-02:0:0:0:0:0:1763:Probed at Bonn, Iref = 3.980233e-06 with trim bits 8:No loaded to any board yet
TSMC_N25A67-08E6:TSMC_N25A67-08E6_5_3:5:3:1:yellow:4:1:IZM:0:0:0:none:Bonn:4.027876e-06:8:1.202134:25:1.203023:22:0.8995643:11:0:2.089E-04:1.838E-02:2.092E-04:1.847E-02:0:0:0:0:0:1753:Probed at Bonn, Iref = 4.027876e-06 with trim bits 8:No loaded to any board yet
TSMC_N25A67-08E6:TSMC_N25A67-08E6_4_11:4:11:1:yellow:4:1:IZM:0:0:0:none:Bonn:4.017581e-06:6:1.202168:20:1.206543:22:0.8972675:11:0:2.078E-04:2.061E-02:2.081E-04:2.084E-02:0:0:0:0:0:174B:Probed at Bonn, Iref = 4.017581e-06 with trim bits 6:No loaded to any board yet
TSMC_N25A67-08E6:TSMC_N25A67-08E6_7_6:7:6:1:yellow:4:1:IZM:0:0:0:none:Bonn:3.967072e-06:9:1.203718:22:1.202539:22:0.9010202:9:0:2.084E-04:2.151E-02:2.088E-04:2.170E-02:0:0:0:0:0:1776:Probed at Bonn, Iref = 3.967072e-06 with trim bits 9:No loaded to any board yet
TSMC_N25A67-08E6:TSMC_N25A67-08E6_6_12:6:12:10:red:4:10:IZM:0:0:0:none:Bonn:0:0:0:0:0:0:0:0:0:0.000E+00:0.000E+00:0.000E+00:0.000E+00:0:0:0:0:0:176C:Probed at Bonn, Iref = 0 with trim bits 0:No loaded to any board yet
TSMC_N25A67-08E6:TSMC_N25A67-08E6_8_7:8:7:2:green:4:2:IZM:0:0:0:none:Bonn:3.949439e-06:6:1.207705:24:1.211164:24:0.9014403:12:0:2.088E-04:1.957E-02:2.090E-04:1.971E-02:0:0:0:0:0:1787:Probed at Bonn, Iref = 3.949439e-06 with trim bits 6:No loaded to any board yet
TSMC_N25A67-08E6:TSMC_N25A67-08E6_4_10:4:10:1:yellow:4:1:IZM:0:0:0:none:Bonn:4.022185e-06:7:1.200219:20:1.191731:19:0.9025609:10:0:2.094E-04:1.863E-02:2.098E-04:1.879E-02:0:0:0:0:0:174A:Probed at Bonn, Iref = 4.022185e-06 with trim bits 7:No loaded to any board yet
TSMC_N25A67-08E6:TSMC_N25A67-08E6_5_12:5:12:10:red:4:10:IZM:0:0:0:none:Bonn:0:0:0:0:0:0:0:0:0:0.000E+00:0.000E+00:0.000E+00:0.000E+00:0:0:0:0:0:175C:Probed at Bonn, Iref = 0 with trim bits 0:No loaded to any board yet
TSMC_N25A67-08E6:TSMC_N25A67-08E6_3_11:3:11:10:red:4:10:IZM:0:0:0:none:Bonn:4.021751e-06:5:1.200333:27:1.19686:25:0.9014961:11:0:2.090E-04:2.255E-02:2.093E-04:2.267E-02:0:0:0:0:0:173B:Probed at Bonn, Iref = 4.021751e-06 with trim bits 5:No loaded to any board yet
TSMC_N25A67-08E6:TSMC_N25A67-08E6_4_3:4:3:1:yellow:4:1:IZM:0:0:0:none:Bonn:3.966076e-06:6:1.208013:24:1.196754:19:0.9009841:10:0:2.093E-04:1.793E-02:2.097E-04:1.788E-02:0:0:0:0:0:1743:Probed at Bonn, Iref = 3.966076e-06 with trim bits 6:No loaded to any board yet
TSMC_N25A67-08E6:TSMC_N25A67-08E6_10_8:10:8:1:yellow:4:1:IZM:0:0:0:none:Bonn:4.021729e-06:7:1.19898:26:1.199793:18:0.8996193:11:0:2.083E-04:2.075E-02:2.086E-04:2.081E-02:0:0:0:0:0:17A8:Probed at Bonn, Iref = 4.021729e-06 with trim bits 7:No loaded to any board yet
TSMC_N25A67-08E6:TSMC_N25A67-08E6_7_8:7:8:1:yellow:4:1:IZM:0:0:0:none:Bonn:3.958721e-06:7:1.199481:23:1.193276:21:0.8953926:11:0:1.066E-08:8.047E-02:-2.067E-09:1.234E-01:0:0:0:0:0:1778:Probed at Bonn, Iref = 3.958721e-06 with trim bits 7:No loaded to any board yet
TSMC_N25A67-08E6:TSMC_N25A67-08E6_4_4:4:4:1:yellow:4:1:IZM:0:0:0:none:Bonn:4.001056e-06:6:1.201254:21:1.199644:16:0.8984381:11:0:2.102E-04:1.288E-02:2.105E-04:1.285E-02:0:0:0:0:0:1744:Probed at Bonn, Iref = 4.001056e-06 with trim bits 6:No loaded to any board yet
TSMC_N25A67-08E6:TSMC_N25A67-08E6_9_10:9:10:1:yellow:4:1:IZM:0:0:0:none:Bonn:3.945867e-06:6:1.20188:28:1.196944:23:0.9031407:10:0:2.099E-04:1.840E-02:2.103E-04:1.868E-02:0:0:0:0:0:179A:Probed at Bonn, Iref = 3.945867e-06 with trim bits 6:No loaded to any board yet
TSMC_N25A67-08E6:TSMC_N25A67-08E6_5_6:5:6:1:yellow:4:1:IZM:0:0:0:none:Bonn:4.025826e-06:8:1.211593:24:1.20185:20:0.899914:8:0:2.087E-04:2.126E-02:2.091E-04:2.130E-02:0:0:0:0:0:1756:Probed at Bonn, Iref = 4.025826e-06 with trim bits 8:No loaded to any board yet
TSMC_N25A67-08E6:TSMC_N25A67-08E6_8_5:8:5:10:red:4:10:IZM:0:0:0:none:Bonn:0:0:0:0:0:0:0:0:0:0.000E+00:0.000E+00:0.000E+00:0.000E+00:0:0:0:0:0:1785:Probed at Bonn, Iref = 0 with trim bits 0:No loaded to any board yet
TSMC_N25A67-08E6:TSMC_N25A67-08E6_5_5:5:5:10:red:4:10:IZM:0:0:0:none:Bonn:0:0:0:0:0:0:0:0:0:0.000E+00:0.000E+00:0.000E+00:0.000E+00:0:0:0:0:0:1755:Probed at Bonn, Iref = 0 with trim bits 0:No loaded to any board yet
TSMC_N25A67-08E6:TSMC_N25A67-08E6_10_5:10:5:10:red:4:10:IZM:0:0:0:none:Bonn:3.983583e-06:6:1.190562:31:1.202623:20:0.9004309:13:0:2.087E-04:1.998E-02:2.091E-04:2.019E-02:0:0:0:0:0:17A5:Probed at Bonn, Iref = 3.983583e-06 with trim bits 6:No loaded to any board yet
TSMC_N25A67-08E6:TSMC_N25A67-08E6_9_3:9:3:1:yellow:4:1:IZM:0:0:0:none:Bonn:3.996075e-06:6:1.202915:22:1.201163:17:0.9019191:10:0:2.089E-04:2.132E-02:2.092E-04:2.146E-02:0:0:0:0:0:1793:Probed at Bonn, Iref = 3.996075e-06 with trim bits 6:No loaded to any board yet
TSMC_N25A67-08E6:TSMC_N25A67-08E6_6_7:6:7:10:red:4:10:IZM:0:0:0:none:Bonn:4.023899e-06:7:1.199485:26:1.192247:19:0.9002203:12:0:2.091E-04:1.687E-02:2.094E-04:1.709E-02:0:0:0:0:0:1767:Probed at Bonn, Iref = 4.023899e-06 with trim bits 7:No loaded to any board yet
TSMC_N25A67-08E6:TSMC_N25A67-08E6_5_4:5:4:1:yellow:4:1:IZM:0:0:0:none:Bonn:3.934013e-06:5:1.189423:23:1.205713:20:0.9051565:12:0:2.108E-04:1.606E-02:2.112E-04:1.611E-02:0:0:0:0:0:1754:Probed at Bonn, Iref = 3.934013e-06 with trim bits 5:No loaded to any board yet
TSMC_N25A67-08E6:TSMC_N25A67-08E6_2_4:2:4:1:yellow:4:1:IZM:0:0:0:none:Bonn:4.040178e-06:9:1.194439:27:1.189331:15:0.9015607:12:0:2.095E-04:1.968E-02:2.099E-04:1.964E-02:0:0:0:0:0:1724:Probed at Bonn, Iref = 4.040178e-06 with trim bits 9:No loaded to any board yet
TSMC_N25A67-08E6:TSMC_N25A67-08E6_8_4:8:4:1:yellow:4:1:IZM:0:0:0:none:Bonn:3.981779e-06:5:1.202678:18:1.206264:22:0.8988943:9:0:2.084E-04:1.901E-02:2.088E-04:1.920E-02:0:0:0:0:0:1784:Probed at Bonn, Iref = 3.981779e-06 with trim bits 5:No loaded to any board yet
TSMC_N25A67-08E6:TSMC_N25A67-08E6_8_6:8:6:2:green:4:2:IZM:0:0:0:none:Bonn:3.932859e-06:7:1.197118:20:1.201364:22:0.9008894:11:0:2.092E-04:1.785E-02:2.097E-04:1.794E-02:0:0:0:0:0:1786:Probed at Bonn, Iref = 3.932859e-06 with trim bits 7:No loaded to any board yet
TSMC_N25A67-08E6:TSMC_N25A67-08E6_2_5:2:5:1:yellow:4:1:IZM:0:0:0:none:Bonn:4.015918e-06:8:1.202779:21:1.194709:17:0.8959705:11:0:2.076E-04:2.078E-02:2.081E-04:2.065E-02:0:0:0:0:0:1725:Probed at Bonn, Iref = 4.015918e-06 with trim bits 8:No loaded to any board yet
TSMC_N25A67-08E6:TSMC_N25A67-08E6_8_2:8:2:1:yellow:4:1:IZM:0:0:0:none:Bonn:3.986211e-06:11:1.195962:29:1.197433:15:0.8958976:11:0:2.086E-04:1.696E-02:2.090E-04:1.709E-02:0:0:0:0:0:1782:Probed at Bonn, Iref = 3.986211e-06 with trim bits 11:No loaded to any board yet
TSMC_N25A67-08E6:TSMC_N25A67-08E6_6_11:6:11:1:yellow:4:1:IZM:0:0:0:none:Bonn:4.057093e-06:8:1.201585:22:1.206846:16:0.8953291:11:0:2.070E-04:2.227E-02:2.073E-04:2.237E-02:0:0:0:0:0:176B:Probed at Bonn, Iref = 4.057093e-06 with trim bits 8:No loaded to any board yet
TSMC_N25A67-08E6:TSMC_N25A67-08E6_3_4:3:4:1:yellow:4:1:IZM:0:0:0:none:Bonn:3.997531e-06:5:1.195782:25:1.201206:18:0.9002226:10:0:2.094E-04:1.742E-02:2.098E-04:1.729E-02:0:0:0:0:0:1734:Probed at Bonn, Iref = 3.997531e-06 with trim bits 5:No loaded to any board yet
TSMC_N25A67-08E6:TSMC_N25A67-08E6_7_5:7:5:1:yellow:4:1:IZM:0:0:0:none:Bonn:3.973163e-06:8:1.192684:27:1.205825:26:0.8998348:12:0:4.977E-09:8.017E-02:-2.467E-09:1.235E-01:0:0:0:0:0:1775:Probed at Bonn, Iref = 3.973163e-06 with trim bits 8:No loaded to any board yet
TSMC_N25A67-08E6:TSMC_N25A67-08E6_1_8:1:8:10:red:4:10:IZM:0:0:0:none:Bonn:3.983658e-06:11:1.142851:31:1.200721:24:0.9021868:8:0:2.080E-04:2.176E-02:2.085E-04:2.161E-02:0:0:0:0:0:1718:Probed at Bonn, Iref = 3.983658e-06 with trim bits 11:No loaded to any board yet
TSMC_N25A67-08E6:TSMC_N25A67-08E6_6_5:6:5:10:red:4:10:IZM:0:0:0:none:Bonn:0:0:0:0:0:0:0:0:0:0.000E+00:0.000E+00:0.000E+00:0.000E+00:0:0:0:0:0:1765:Probed at Bonn, Iref = 0 with trim bits 0:No loaded to any board yet
TSMC_N25A67-08E6:TSMC_N25A67-08E6_7_3:7:3:1:yellow:4:1:IZM:0:0:0:none:Bonn:4.025379e-06:7:1.197188:20:1.196283:18:0.90123:11:0:2.095E-04:1.819E-02:2.099E-04:1.829E-02:0:0:0:0:0:1773:Probed at Bonn, Iref = 4.025379e-06 with trim bits 7:No loaded to any board yet
TSMC_N25A67-08E6:TSMC_N25A67-08E6_9_4:9:4:1:yellow:4:1:IZM:0:0:0:none:Bonn:4.010116e-06:5:1.210404:28:1.197445:16:0.9005783:10:0:2.088E-04:1.908E-02:2.092E-04:1.920E-02:0:0:0:0:0:1794:Probed at Bonn, Iref = 4.010116e-06 with trim bits 5:No loaded to any board yet
TSMC_N25A67-08E6:TSMC_N25A67-08E6_5_9:5:9:1:yellow:4:1:IZM:0:0:0:none:Bonn:3.96689e-06:8:1.200539:20:1.199979:23:0.9042429:12:0:2.099E-04:1.833E-02:2.102E-04:1.836E-02:0:0:0:0:0:1759:Probed at Bonn, Iref = 3.96689e-06 with trim bits 8:No loaded to any board yet
TSMC_N25A67-08E6:TSMC_N25A67-08E6_10_9:10:9:10:red:4:10:IZM:0:0:0:none:Bonn:0:0:0:0:0:0:0:0:0:0.000E+00:0.000E+00:0.000E+00:0.000E+00:0:0:0:0:0:17A9:Probed at Bonn, Iref = 0 with trim bits 0:No loaded to any board yet
TSMC_N25A67-08E6:TSMC_N25A67-08E6_4_5:4:5:10:red:4:10:IZM:0:0:0:none:Bonn:0:0:0:0:0:0:0:0:0:0.000E+00:0.000E+00:0.000E+00:0.000E+00:0:0:0:0:0:1745:Probed at Bonn, Iref = 0 with trim bits 0:No loaded to any board yet
TSMC_N25A67-08E6:TSMC_N25A67-08E6_5_1:5:1:1:yellow:4:1:IZM:0:0:0:none:Bonn:4.008544e-06:8:1.20651:26:1.196376:19:0.8968294:9:0:2.090E-04:1.728E-02:2.093E-04:1.742E-02:0:0:0:0:0:1751:Probed at Bonn, Iref = 4.008544e-06 with trim bits 8:No loaded to any board yet
TSMC_N25A67-08E6:TSMC_N25A67-08E6_8_9:8:9:1:yellow:4:1:IZM:0:0:0:none:Bonn:3.928495e-06:7:1.20712:24:1.188605:23:0.8983089:8:0:2.079E-04:1.965E-02:2.082E-04:1.983E-02:0:0:0:0:0:1789:Probed at Bonn, Iref = 3.928495e-06 with trim bits 7:No loaded to any board yet
TSMC_N25A67-08E6:TSMC_N25A67-08E6_3_7:3:7:1:yellow:4:1:IZM:0:0:0:none:Bonn:4.024459e-06:6:1.196315:20:1.196895:25:0.8992633:9:0:2.087E-04:1.941E-02:2.091E-04:1.956E-02:0:0:0:0:0:1737:Probed at Bonn, Iref = 4.024459e-06 with trim bits 6:No loaded to any board yet
TSMC_N25A67-08E6:TSMC_N25A67-08E6_9_5:9:5:1:yellow:4:1:IZM:0:0:0:none:Bonn:3.985469e-06:8:1.202576:24:1.203155:25:0.9004959:10:0:1.209E-08:8.798E-02:2.067E-04:2.747E-02:0:0:0:0:0:1795:Probed at Bonn, Iref = 3.985469e-06 with trim bits 8:No loaded to any board yet
TSMC_N25A67-08E6:TSMC_N25A67-08E6_7_4:7:4:1:yellow:4:1:IZM:0:0:0:none:Bonn:4.039762e-06:5:1.200333:19:1.191035:23:0.8973107:9:0:2.086E-04:1.707E-02:2.090E-04:1.723E-02:0:0:0:0:0:1774:Probed at Bonn, Iref = 4.039762e-06 with trim bits 5:No loaded to any board yet
TSMC_N25A67-08E6:TSMC_N25A67-08E6_3_6:3:6:10:red:4:10:IZM:0:0:0:none:Bonn:4.012462e-06:9:1.196777:31:1.19769:25:0.8985435:10:0:2.084E-04:1.968E-02:2.088E-04:1.975E-02:0:0:0:0:0:1736:Probed at Bonn, Iref = 4.012462e-06 with trim bits 9:No loaded to any board yet
TSMC_N25A67-08E6:TSMC_N25A67-08E6_9_6:9:6:1:yellow:4:1:IZM:0:0:0:none:Bonn:4.068794e-06:8:1.191333:23:1.205322:24:0.8951185:11:0:2.069E-04:2.050E-02:2.072E-04:2.064E-02:0:0:0:0:0:1796:Probed at Bonn, Iref = 4.068794e-06 with trim bits 8:No loaded to any board yet
TSMC_N25A67-08E6:TSMC_N25A67-08E6_6_6:6:6:2:green:4:2:IZM:0:0:0:none:Bonn:4.038594e-06:8:1.203375:23:1.203273:16:0.9029816:12:0:5.837E-09:7.898E-02:2.110E-04:1.700E-02:0:0:0:0:0:1766:Probed at Bonn, Iref = 4.038594e-06 with trim bits 8:No loaded to any board yet
TSMC_N25A67-08E6:TSMC_N25A67-08E6_1_7:1:7:1:yellow:4:1:IZM:0:0:0:none:Bonn:3.950263e-06:6:1.195591:19:1.197462:26:0.8993683:7:0:2.078E-04:2.389E-02:2.082E-04:2.385E-02:0:0:0:0:0:1717:Probed at Bonn, Iref = 3.950263e-06 with trim bits 6:No loaded to any board yet
TSMC_N25A67-08E6:TSMC_N25A67-08E6_3_8:3:8:1:yellow:4:1:IZM:0:0:0:none:Bonn:3.950584e-06:7:1.206967:24:1.206117:24:0.9039116:12:0:2.093E-04:2.127E-02:2.097E-04:2.145E-02:0:0:0:0:0:1738:Probed at Bonn, Iref = 3.950584e-06 with trim bits 7:No loaded to any board yet
TSMC_N25A67-08E6:TSMC_N25A67-08E6_4_9:4:9:2:green:4:2:IZM:0:0:0:none:Bonn:3.979711e-06:6:1.199929:22:1.201629:20:0.901552:11:0:2.092E-04:1.868E-02:2.096E-04:1.878E-02:0:0:0:0:0:1749:Probed at Bonn, Iref = 3.979711e-06 with trim bits 6:No loaded to any board yet
TSMC_N25A67-08E6:TSMC_N25A67-08E6_8_10:8:10:10:red:4:10:IZM:0:0:0:none:Bonn:0:0:0:0:0:0:0:0:0:0.000E+00:0.000E+00:0.000E+00:0.000E+00:0:0:0:0:0:178A:Probed at Bonn, Iref = 0 with trim bits 0:No loaded to any board yet
TSMC_N25A67-08E6:TSMC_N25A67-08E6_7_12:7:12:2:green:4:2:IZM:0:0:0:none:Bonn:4.016109e-06:7:1.200602:22:1.203376:20:0.9036809:8:0:2.105E-04:1.980E-02:2.106E-04:2.023E-02:0:0:0:0:0:177C:Probed at Bonn, Iref = 4.016109e-06 with trim bits 7:No loaded to any board yet
TSMC_N25A67-08E6:TSMC_N25A67-08E6_8_8:8:8:10:red:4:10:IZM:0:0:0:none:Bonn:0:0:0:0:0:0:0:0:0:0.000E+00:0.000E+00:0.000E+00:0.000E+00:0:0:0:0:0:1788:Probed at Bonn, Iref = 0 with trim bits 0:No loaded to any board yet
TSMC_N25A67-08E6:TSMC_N25A67-08E6_2_8:2:8:1:yellow:4:1:IZM:0:0:0:none:Bonn:4.01366e-06:10:1.20632:28:1.205804:16:0.9018643:13:0:2.093E-04:1.960E-02:2.097E-04:1.977E-02:0:0:0:0:0:1728:Probed at Bonn, Iref = 4.01366e-06 with trim bits 10:No loaded to any board yet
TSMC_N25A67-08E6:TSMC_N25A67-08E6_6_10:6:10:1:yellow:4:1:IZM:0:0:0:none:Bonn:3.954671e-06:7:1.197004:28:1.204428:26:0.9005322:9:0:2.085E-04:2.120E-02:2.088E-04:2.139E-02:0:0:0:0:0:176A:Probed at Bonn, Iref = 3.954671e-06 with trim bits 7:No loaded to any board yet
